ISO-10303-21;
HEADER;
FILE_DESCRIPTION (( 'STEP AP214' ),
    '1' );
FILE_NAME ('venturiOrifice.STEP',
    '2020-04-01T13:18:33',
    ( '' ),
    ( '' ),
    'SwSTEP 2.0',
    'SolidWorks 2018',
    '' );
FILE_SCHEMA (( 'AUTOMOTIVE_DESIGN' ));
ENDSEC;

DATA;
#1 = CARTESIAN_POINT ( 'NONE',  ( 0.0000000000000000000, 56.99999999999992895, 0.0000000000000000000 ) ) ;
#2 = VERTEX_POINT ( 'NONE', #231 ) ;
#3 = SURFACE_STYLE_FILL_AREA ( #125 ) ;
#4 = CIRCLE ( 'NONE', #228, 4.999999999999998224 ) ;
#5 = AXIS2_PLACEMENT_3D ( 'NONE', #49, #277, #261 ) ;
#6 = VERTEX_POINT ( 'NONE', #155 ) ;
#7 = EDGE_CURVE ( 'NONE', #640, #976, #847, .T. ) ;
#8 = VECTOR ( 'NONE', #47, 1000.000000000000000 ) ;
#9 = EDGE_LOOP ( 'NONE', ( #925, #848, #836, #657 ) ) ;
#10 = DIRECTION ( 'NONE',  ( 0.0000000000000000000, 0.0000000000000000000, -1.000000000000000000 ) ) ;
#11 = CARTESIAN_POINT ( 'NONE',  ( -2.549999999999996270, 29.00000000000001066, -4.300872004605578169 ) ) ;
#12 = SURFACE_SIDE_STYLE ('',( #782 ) ) ;
#13 = ORIENTED_EDGE ( 'NONE', *, *, #895, .T. ) ;
#14 = CARTESIAN_POINT ( 'NONE',  ( -1.112313189673841631E-31, -1.224659181929866868E-16, 0.0000000000000000000 ) ) ;
#15 = DIRECTION ( 'NONE',  ( -0.0000000000000000000, -1.000000000000000000, -0.0000000000000000000 ) ) ;
#16 = CARTESIAN_POINT ( 'NONE',  ( -1.820258892653967786, 25.31649947057917061, -12.87433693597543005 ) ) ;
#17 = CARTESIAN_POINT ( 'NONE',  ( 0.0000000000000000000, 29.00000000000001066, -19.00000000000000355 ) ) ;
#18 = ORIENTED_EDGE ( 'NONE', *, *, #595, .F. ) ;
#19 = EDGE_CURVE ( 'NONE', #389, #235, #103, .T. ) ;
#20 = EDGE_LOOP ( 'NONE', ( #212, #1003, #850, #18 ) ) ;
#21 = CARTESIAN_POINT ( 'NONE',  ( -1.128270802489797386, 31.30475961103975635, -5.005749321696306708 ) ) ;
#22 = CARTESIAN_POINT ( 'NONE',  ( -1.070564307987238228, 25.03301873881150286, -12.95856439248671066 ) ) ;
#23 =( NAMED_UNIT ( * ) PLANE_ANGLE_UNIT ( ) SI_UNIT ( $, .RADIAN. ) );
#24 = CARTESIAN_POINT ( 'NONE',  ( -0.2925080215076153456, 31.53737438912044411, -5.154044636022962145 ) ) ;
#25 = CARTESIAN_POINT ( 'NONE',  ( 0.0000000000000000000, 46.99999999999993605, 0.0000000000000000000 ) ) ;
#26 = AXIS2_PLACEMENT_3D ( 'NONE', #270, #353, #916 ) ;
#27 = VERTEX_POINT ( 'NONE', #419 ) ;
#28 = CARTESIAN_POINT ( 'NONE',  ( 0.0000000000000000000, 26.60483206276493462, 0.0000000000000000000 ) ) ;
#29 = CARTESIAN_POINT ( 'NONE',  ( 0.0000000000000000000, 26.60483206276493462, 16.99999999999998579 ) ) ;
#30 = CIRCLE ( 'NONE', #790, 11.30000000000000071 ) ;
#31 = ADVANCED_FACE ( 'NONE', ( #132 ), #948, .F. ) ;
#32 = CARTESIAN_POINT ( 'NONE',  ( -4.099999999999999645, 29.00000000000001066, -7.000000000000000000 ) ) ;
#33 = CIRCLE ( 'NONE', #361, 11.29999999999999893 ) ;
#34 = DIRECTION ( 'NONE',  ( 0.0000000000000000000, 0.0000000000000000000, 1.000000000000000000 ) ) ;
#35 = ORIENTED_EDGE ( 'NONE', *, *, #110, .F. ) ;
#36 = CARTESIAN_POINT ( 'NONE',  ( 3.259109533690501603, 26.49824059681953514, -12.58577237303372520 ) ) ;
#37 = EDGE_CURVE ( 'NONE', #389, #307, #970, .T. ) ;
#38 = CIRCLE ( 'NONE', #456, 4.999999999999998224 ) ;
#39 = EDGE_LOOP ( 'NONE', ( #946, #779, #201, #85 ) ) ;
#40 = CARTESIAN_POINT ( 'NONE',  ( -4.100000000000000533, 29.26946925203196059, -12.33653111697123883 ) ) ;
#41 = DIRECTION ( 'NONE',  ( 1.000000000000000000, 0.0000000000000000000, 0.0000000000000000000 ) ) ;
#42 = CARTESIAN_POINT ( 'NONE',  ( 1.592040838891557912E-15, 43.99999999999991473, 12.99999999999998934 ) ) ;
#43 = EDGE_LOOP ( 'NONE', ( #934, #862 ) ) ;
#44 = AXIS2_PLACEMENT_3D ( 'NONE', #167, #426, #648 ) ;
#45 = CARTESIAN_POINT ( 'NONE',  ( 0.0000000000000000000, 10.39516793723504406, -11.30000000000000071 ) ) ;
#46 = EDGE_CURVE ( 'NONE', #689, #668, #278, .T. ) ;
#47 = DIRECTION ( 'NONE',  ( -0.0000000000000000000, -1.000000000000000000, -0.0000000000000000000 ) ) ;
#48 = CIRCLE ( 'NONE', #5, 11.30000000000000071 ) ;
#49 = CARTESIAN_POINT ( 'NONE',  ( 0.0000000000000000000, 10.39516793723504406, 0.0000000000000000000 ) ) ;
#50 = VERTEX_POINT ( 'NONE', #161 ) ;
#51 = DIRECTION ( 'NONE',  ( 0.0000000000000000000, 0.0000000000000000000, 1.000000000000000000 ) ) ;
#52 = DIRECTION ( 'NONE',  ( 1.000000000000000000, 0.0000000000000000000, 0.0000000000000000000 ) ) ;
#53 = DIRECTION ( 'NONE',  ( 0.0000000000000000000, 0.0000000000000000000, -1.000000000000000000 ) ) ;
#54 = CARTESIAN_POINT ( 'NONE',  ( -2.549999999999996270, 29.00000000000001066, -4.300872004605578169 ) ) ;
#55 = FACE_BOUND ( 'NONE', #379, .T. ) ;
#56 = ORIENTED_EDGE ( 'NONE', *, *, #245, .T. ) ;
#57 = DIRECTION ( 'NONE',  ( -0.0000000000000000000, -0.0000000000000000000, -1.000000000000000000 ) ) ;
#58 = EDGE_CURVE ( 'NONE', #870, #1013, #38, .T. ) ;
#59 = CARTESIAN_POINT ( 'NONE',  ( 2.303044969667432884, 30.13059898521756352, -4.452900541435364623 ) ) ;
#60 = EDGE_CURVE ( 'NONE', #373, #108, #267, .T. ) ;
#61 = CARTESIAN_POINT ( 'NONE',  ( -3.306546357697833519E-16, 44.65580235342376625, -2.699999999999983746 ) ) ;
#62 = CARTESIAN_POINT ( 'NONE',  ( 1.133815537704621068, 31.30247857325793603, -5.004330708693196961 ) ) ;
#63 = ORIENTED_EDGE ( 'NONE', *, *, #477, .T. ) ;
#64 = VECTOR ( 'NONE', #607, 1000.000000000000000 ) ;
#65 = CARTESIAN_POINT ( 'NONE',  ( 1.138921523207039363E-15, 0.0000000000000000000, 9.300000000000006040 ) ) ;
#66 = AXIS2_PLACEMENT_3D ( 'NONE', #918, #349, #673 ) ;
#67 = CARTESIAN_POINT ( 'NONE',  ( 0.0000000000000000000, -2.081917822988180964E-16, -12.99999999999997513 ) ) ;
#68 = EDGE_CURVE ( 'NONE', #868, #192, #234, .T. ) ;
#69 = DIRECTION ( 'NONE',  ( -0.0000000000000000000, -1.000000000000000000, -0.0000000000000000000 ) ) ;
#70 = CARTESIAN_POINT ( 'NONE',  ( 2.549999999999996270, 29.00000000000001066, -4.300872004605578169 ) ) ;
#71 = TOROIDAL_SURFACE ( 'NONE', #684, 16.99999999999998579, 11.99999999999998934 ) ;
#72 = ORIENTED_EDGE ( 'NONE', *, *, #944, .T. ) ;
#73 = CARTESIAN_POINT ( 'NONE',  ( 1.453211682142059313, 26.90069364645468042, -4.785351607550364150 ) ) ;
#74 = FACE_BOUND ( 'NONE', #43, .T. ) ;
#75 = EDGE_LOOP ( 'NONE', ( #135, #133 ) ) ;
#76 = EDGE_CURVE ( 'NONE', #668, #640, #1028, .T. ) ;
#77 = CARTESIAN_POINT ( 'NONE',  ( 2.498512396435096150, 28.47344661959785483, -4.331050355781800754 ) ) ;
#78 = CIRCLE ( 'NONE', #586, 11.99999999999998934 ) ;
#79 = DIRECTION ( 'NONE',  ( -0.0000000000000000000, -1.000000000000000000, -0.0000000000000000000 ) ) ;
#80 = ORIENTED_EDGE ( 'NONE', *, *, #843, .F. ) ;
#81 = PLANE ( 'NONE',  #421 ) ;
#82 = AXIS2_PLACEMENT_3D ( 'NONE', #628, #864, #468 ) ;
#83 = EDGE_CURVE ( 'NONE', #792, #786, #572, .T. ) ;
#84 = DIRECTION ( 'NONE',  ( 0.0000000000000000000, 0.0000000000000000000, -1.000000000000000000 ) ) ;
#85 = ORIENTED_EDGE ( 'NONE', *, *, #60, .F. ) ;
#86 = DIRECTION ( 'NONE',  ( 0.0000000000000000000, 1.000000000000000000, 0.0000000000000000000 ) ) ;
#87 = CARTESIAN_POINT ( 'NONE',  ( -3.554017166967733843, 26.93850939396052979, -12.50569932105684856 ) ) ;
#88 = LINE ( 'NONE', #1012, #170 ) ;
#89 = EDGE_CURVE ( 'NONE', #498, #976, #791, .T. ) ;
#90 = DIRECTION ( 'NONE',  ( -0.0000000000000000000, -1.000000000000000000, -0.0000000000000000000 ) ) ;
#91 = CARTESIAN_POINT ( 'NONE',  ( -2.339604613145513490, 27.97755542397050732, -4.419325306577881030 ) ) ;
#92 = ORIENTED_EDGE ( 'NONE', *, *, #384, .F. ) ;
#93 = DIRECTION ( 'NONE',  ( -0.0000000000000000000, -1.000000000000000000, -0.0000000000000000000 ) ) ;
#94 = ADVANCED_FACE ( 'NONE', ( #632 ), #486, .F. ) ;
#95 = CARTESIAN_POINT ( 'NONE',  ( 0.0000000000000000000, 43.99999999999991473, -12.99999999999998934 ) ) ;
#96 = CARTESIAN_POINT ( 'NONE',  ( -0.8750260295791453258, 26.60483206276493462, -4.922837540236214338 ) ) ;
#97 = AXIS2_PLACEMENT_3D ( 'NONE', #955, #887, #562 ) ;
#98 = DIRECTION ( 'NONE',  ( -0.0000000000000000000, -0.0000000000000000000, 1.000000000000000000 ) ) ;
#99 = CARTESIAN_POINT ( 'NONE',  ( 0.0000000000000000000, 34.22908269693249395, 0.0000000000000000000 ) ) ;
#100 = CARTESIAN_POINT ( 'NONE',  ( 1.592040838891556926E-15, 0.0000000000000000000, 12.99999999999998224 ) ) ;
#101 = ADVANCED_FACE ( 'NONE', ( #395 ), #374, .T. ) ;
#102 = DIRECTION ( 'NONE',  ( -0.0000000000000000000, -1.000000000000000000, -0.0000000000000000000 ) ) ;
#103 = B_SPLINE_CURVE_WITH_KNOTS ( 'NONE', 3,
 ( #152, #404, #239, #391, #408, #495, #492, #91, #571, #732, #658, #903, #724, #11 ),
 .UNSPECIFIED., .F., .F.,
 ( 4, 2, 2, 2, 2, 2, 4 ),
 ( 0.0000000000000000000, 0.0007919177900196854676, 0.001583835580039370935, 0.001979794475049218710, 0.002375753370059067136, 0.002771712265068915129, 0.003167671160078763121 ),
 .UNSPECIFIED. ) ;
#104 = DIRECTION ( 'NONE',  ( 0.0000000000000000000, 0.0000000000000000000, -1.000000000000000000 ) ) ;
#105 = DIRECTION ( 'NONE',  ( 0.0000000000000000000, 0.0000000000000000000, -1.000000000000000000 ) ) ;
#106 = CARTESIAN_POINT ( 'NONE',  ( 0.0000000000000000000, 10.39516793723504406, 0.0000000000000000000 ) ) ;
#107 = EDGE_CURVE ( 'NONE', #1017, #1027, #620, .T. ) ;
#108 = VERTEX_POINT ( 'NONE', #360 ) ;
#109 = ADVANCED_FACE ( 'NONE', ( #422 ), #285, .F. ) ;
#110 = EDGE_CURVE ( 'NONE', #744, #549, #639, .T. ) ;
#111 = ORIENTED_EDGE ( 'NONE', *, *, #959, .T. ) ;
#112 = CARTESIAN_POINT ( 'NONE',  ( 0.5901509477306724483, 26.51478829263713877, -4.967533107320017294 ) ) ;
#113 = CARTESIAN_POINT ( 'NONE',  ( 0.2686711346789631971, 24.90000000000001279, -12.99999999999998401 ) ) ;
#114 =( NAMED_UNIT ( * ) PLANE_ANGLE_UNIT ( ) SI_UNIT ( $, .RADIAN. ) );
#115 = CIRCLE ( 'NONE', #252, 11.99999999999998934 ) ;
#116 = ORIENTED_EDGE ( 'NONE', *, *, #595, .T. ) ;
#117 = DIRECTION ( 'NONE',  ( 0.0000000000000000000, 0.0000000000000000000, -1.000000000000000000 ) ) ;
#118 = CARTESIAN_POINT ( 'NONE',  ( 2.709938963643477638, 25.91166153659854388, -12.71589186969968210 ) ) ;
#119 = DIRECTION ( 'NONE',  ( 0.0000000000000000000, 0.0000000000000000000, 1.000000000000000000 ) ) ;
#120 = DIRECTION ( 'NONE',  ( -0.0000000000000000000, -1.000000000000000000, -0.0000000000000000000 ) ) ;
#121 = ORIENTED_EDGE ( 'NONE', *, *, #843, .T. ) ;
#122 = CARTESIAN_POINT ( 'NONE',  ( 0.0000000000000000000, 43.99999999999991473, 0.0000000000000000000 ) ) ;
#123 = ORIENTED_EDGE ( 'NONE', *, *, #76, .T. ) ;
#124 = FACE_OUTER_BOUND ( 'NONE', #777, .T. ) ;
#125 = FILL_AREA_STYLE ('',( #838 ) ) ;
#126 = CARTESIAN_POINT ( 'NONE',  ( 2.549999999999995826, 29.19657448412337075, -4.300872004605578169 ) ) ;
#127 = CARTESIAN_POINT ( 'NONE',  ( 0.0000000000000000000, 0.0000000000000000000, 0.0000000000000000000 ) ) ;
#128 = DIRECTION ( 'NONE',  ( 0.0000000000000000000, 0.0000000000000000000, -1.000000000000000000 ) ) ;
#129 = ADVANCED_BREP_SHAPE_REPRESENTATION ( 'venturiOrifice', ( #314, #496 ), #950 ) ;
#130 = ORIENTED_EDGE ( 'NONE', *, *, #237, .F. ) ;
#131 = AXIS2_PLACEMENT_3D ( 'NONE', #61, #302, #859 ) ;
#132 = FACE_OUTER_BOUND ( 'NONE', #364, .T. ) ;
#133 = ORIENTED_EDGE ( 'NONE', *, *, #730, .F. ) ;
#134 = EDGE_CURVE ( 'NONE', #792, #744, #344, .T. ) ;
#135 = ORIENTED_EDGE ( 'NONE', *, *, #171, .F. ) ;
#136 = CARTESIAN_POINT ( 'NONE',  ( 0.5833643554560224986, 31.48665111218570800, -5.120947987682305858 ) ) ;
#137 = ORIENTED_EDGE ( 'NONE', *, *, #317, .F. ) ;
#138 = MECHANICAL_DESIGN_GEOMETRIC_PRESENTATION_REPRESENTATION (  '', ( #1014 ), #354 ) ;
#139 = ORIENTED_EDGE ( 'NONE', *, *, #491, .T. ) ;
#140 = EDGE_CURVE ( 'NONE', #27, #50, #176, .T. ) ;
#141 = CARTESIAN_POINT ( 'NONE',  ( -4.099999999999999645, 29.00000000000001066, -12.33653111697123528 ) ) ;
#142 = VERTEX_POINT ( 'NONE', #585 ) ;
#143 = DIRECTION ( 'NONE',  ( 0.0000000000000000000, 0.0000000000000000000, 1.000000000000000000 ) ) ;
#144 = ORIENTED_EDGE ( 'NONE', *, *, #959, .F. ) ;
#145 = DIRECTION ( 'NONE',  ( 0.0000000000000000000, 0.0000000000000000000, 1.000000000000000000 ) ) ;
#146 = CARTESIAN_POINT ( 'NONE',  ( 0.0000000000000000000, 10.39516793723504406, 0.6999999999999888534 ) ) ;
#147 = ORIENTED_EDGE ( 'NONE', *, *, #803, .T. ) ;
#148 = DIRECTION ( 'NONE',  ( -0.0000000000000000000, -1.000000000000000000, -0.0000000000000000000 ) ) ;
#149 = LINE ( 'NONE', #432, #406 ) ;
#150 = ORIENTED_EDGE ( 'NONE', *, *, #467, .F. ) ;
#151 = CARTESIAN_POINT ( 'NONE',  ( -2.549999999999996270, 29.19431482147999546, -4.300872004605578169 ) ) ;
#152 = CARTESIAN_POINT ( 'NONE',  ( -0.8750260295791453258, 26.60483206276493462, -4.922837540236214338 ) ) ;
#153 = ORIENTED_EDGE ( 'NONE', *, *, #7, .T. ) ;
#154 = CARTESIAN_POINT ( 'NONE',  ( -2.549999999999996270, 29.00000000000001066, -4.300872004605578169 ) ) ;
#155 = CARTESIAN_POINT ( 'NONE',  ( 1.138921523207039363E-15, 44.65580235342376625, 9.300000000000006040 ) ) ;
#156 = FACE_OUTER_BOUND ( 'NONE', #452, .T. ) ;
#157 = EDGE_CURVE ( 'NONE', #470, #316, #149, .T. ) ;
#158 = CARTESIAN_POINT ( 'NONE',  ( 4.099999999999999645, 29.00000000000001066, -7.000000000000000000 ) ) ;
#159 = VECTOR ( 'NONE', #386, 1000.000000000000000 ) ;
#160 = ORIENTED_EDGE ( 'NONE', *, *, #441, .F. ) ;
#161 = CARTESIAN_POINT ( 'NONE',  ( 0.0000000000000000000, 18.42274471670445024, -8.219529754965984480 ) ) ;
#162 = AXIS2_PLACEMENT_3D ( 'NONE', #127, #611, #690 ) ;
#163 = CARTESIAN_POINT ( 'NONE',  ( 1.671849785224441754E-14, 26.45000000000000639, -5.000998915228822561 ) ) ;
#164 = DIRECTION ( 'NONE',  ( 0.0000000000000000000, 0.0000000000000000000, 1.000000000000000000 ) ) ;
#165 = VERTEX_POINT ( 'NONE', #538 ) ;
#166 = ADVANCED_FACE ( 'NONE', ( #1004 ), #769, .F. ) ;
#167 = CARTESIAN_POINT ( 'NONE',  ( 0.0000000000000000000, 56.99999999999992895, 0.0000000000000000000 ) ) ;
#168 = CARTESIAN_POINT ( 'NONE',  ( -0.5405516645256490671, 24.92681302146150912, -12.99147039213572974 ) ) ;
#169 = CARTESIAN_POINT ( 'NONE',  ( -1.804938562686642480E-13, 31.55000000000014637, -5.162427245913839613 ) ) ;
#170 = VECTOR ( 'NONE', #927, 1000.000000000000000 ) ;
#171 = EDGE_CURVE ( 'NONE', #335, #647, #879, .T. ) ;
#172 = DIRECTION ( 'NONE',  ( -0.0000000000000000000, -1.000000000000000000, -0.0000000000000000000 ) ) ;
#173 = CARTESIAN_POINT ( 'NONE',  ( 0.0000000000000000000, 29.00000000000001066, -19.00000000000000355 ) ) ;
#174 = ORIENTED_EDGE ( 'NONE', *, *, #134, .F. ) ;
#175 = DIRECTION ( 'NONE',  ( 0.0000000000000000000, 0.0000000000000000000, -1.000000000000000000 ) ) ;
#176 = LINE ( 'NONE', #835, #743 ) ;
#177 = ORIENTED_EDGE ( 'NONE', *, *, #262, .T. ) ;
#178 = CARTESIAN_POINT ( 'NONE',  ( 0.0000000000000000000, 29.00000000000001066, -7.000000000000000000 ) ) ;
#179 = DIRECTION ( 'NONE',  ( -0.0000000000000000000, -1.000000000000000000, -0.0000000000000000000 ) ) ;
#180 = EDGE_CURVE ( 'NONE', #142, #698, #464, .T. ) ;
#181 = CARTESIAN_POINT ( 'NONE',  ( 0.8750260295791447707, 26.60483206276493462, -4.922837540236212561 ) ) ;
#182 = CARTESIAN_POINT ( 'NONE',  ( 3.256917092684812776, 31.50497839738252637, -12.58636439238373406 ) ) ;
#183 = ORIENTED_EDGE ( 'NONE', *, *, #317, .T. ) ;
#184 = CARTESIAN_POINT ( 'NONE',  ( 2.504607620147278890, 25.74299261169450403, -12.75843234896341372 ) ) ;
#185 = FACE_OUTER_BOUND ( 'NONE', #783, .T. ) ;
#186 = CARTESIAN_POINT ( 'NONE',  ( 1.006602080491552096E-15, 18.42274471670445024, 8.219529754965984480 ) ) ;
#187 = CARTESIAN_POINT ( 'NONE',  ( 4.099999999999970335, 29.27019668387033136, -12.33653111697124061 ) ) ;
#188 = VECTOR ( 'NONE', #775, 1000.000000000000000 ) ;
#189 = DIRECTION ( 'NONE',  ( 0.0000000000000000000, 1.000000000000000000, 0.0000000000000000000 ) ) ;
#190 = DIRECTION ( 'NONE',  ( -0.0000000000000000000, -1.000000000000000000, -0.0000000000000000000 ) ) ;
#191 = AXIS2_PLACEMENT_3D ( 'NONE', #941, #216, #542 ) ;
#192 = VERTEX_POINT ( 'NONE', #297 ) ;
#193 = CARTESIAN_POINT ( 'NONE',  ( 3.681800868587205677, 27.17589475637938889, -12.46820395923134228 ) ) ;
#194 = EDGE_CURVE ( 'NONE', #917, #625, #534, .T. ) ;
#195 = CARTESIAN_POINT ( 'NONE',  ( 6.123233995736763324E-16, 31.99999999999995737, -4.999999999999997335 ) ) ;
#196 = DIRECTION ( 'NONE',  ( -1.224646799147353207E-16, 0.0000000000000000000, -1.000000000000000000 ) ) ;
#197 = CARTESIAN_POINT ( 'NONE',  ( -2.549999999999996270, 29.00000000000001066, -12.99999999999998934 ) ) ;
#198 = LINE ( 'NONE', #197, #605 ) ;
#199 = SURFACE_STYLE_USAGE ( .BOTH. , #752 ) ;
#200 = CARTESIAN_POINT ( 'NONE',  ( 0.0000000000000000000, 46.99999999999993605, 0.0000000000000000000 ) ) ;
#201 = ORIENTED_EDGE ( 'NONE', *, *, #629, .T. ) ;
#202 = ORIENTED_EDGE ( 'NONE', *, *, #552, .F. ) ;
#203 = CARTESIAN_POINT ( 'NONE',  ( 0.0000000000000000000, 56.99999999999992895, 0.0000000000000000000 ) ) ;
#204 = DIRECTION ( 'NONE',  ( 0.0000000000000000000, 1.000000000000000000, 0.0000000000000000000 ) ) ;
#205 = EDGE_CURVE ( 'NONE', #316, #919, #318, .T. ) ;
#206 = PRODUCT_RELATED_PRODUCT_CATEGORY ( 'part', '', ( #257 ) ) ;
#207 = EDGE_CURVE ( 'NONE', #412, #698, #674, .T. ) ;
#208 = CARTESIAN_POINT ( 'NONE',  ( 0.0000000000000000000, 29.58229288467138929, 4.999999999999998224 ) ) ;
#209 = ORIENTED_EDGE ( 'NONE', *, *, #1000, .T. ) ;
#210 = DIRECTION ( 'NONE',  ( -0.0000000000000000000, -1.000000000000000000, -0.0000000000000000000 ) ) ;
#211 = AXIS2_PLACEMENT_3D ( 'NONE', #757, #984, #272 ) ;
#212 = ORIENTED_EDGE ( 'NONE', *, *, #171, .T. ) ;
#213 = CARTESIAN_POINT ( 'NONE',  ( 0.8750260295791447707, 26.60483206276493462, -4.922837540236212561 ) ) ;
#214 = EDGE_CURVE ( 'NONE', #27, #2, #718, .T. ) ;
#215 = ORIENTED_EDGE ( 'NONE', *, *, #764, .F. ) ;
#216 = DIRECTION ( 'NONE',  ( -0.0000000000000000000, -0.0000000000000000000, 1.000000000000000000 ) ) ;
#217 = DIRECTION ( 'NONE',  ( -1.000000000000000000, 0.0000000000000000000, 0.0000000000000000000 ) ) ;
#218 = LINE ( 'NONE', #485, #980 ) ;
#219 = ORIENTED_EDGE ( 'NONE', *, *, #157, .F. ) ;
#220 = AXIS2_PLACEMENT_3D ( 'NONE', #570, #510, #819 ) ;
#221 = DIRECTION ( 'NONE',  ( 0.0000000000000000000, 1.000000000000000000, 0.0000000000000000000 ) ) ;
#222 = CARTESIAN_POINT ( 'NONE',  ( 1.935503913222265560, 27.32002794806555812, -4.613064321142322122 ) ) ;
#223 = ORIENTED_EDGE ( 'NONE', *, *, #180, .T. ) ;
#224 = ORIENTED_EDGE ( 'NONE', *, *, #748, .T. ) ;
#225 = CARTESIAN_POINT ( 'NONE',  ( 1.383850883036509265E-15, 0.0000000000000000000, 11.30000000000000071 ) ) ;
#226 = EDGE_CURVE ( 'NONE', #789, #165, #933, .T. ) ;
#227 = CARTESIAN_POINT ( 'NONE',  ( 0.8750260295791447707, 26.60483206276493462, -4.922837540236212561 ) ) ;
#228 = AXIS2_PLACEMENT_3D ( 'NONE', #28, #179, #725 ) ;
#229 = CYLINDRICAL_SURFACE ( 'NONE', #865, 12.99999999999998224 ) ;
#230 = CARTESIAN_POINT ( 'NONE',  ( -2.482626632512643816, 29.58229288467138929, -4.340111174098990610 ) ) ;
#231 = CARTESIAN_POINT ( 'NONE',  ( 9.980871413050927985E-16, 18.57725528329553200, 8.080470245034012677 ) ) ;
#232 = ORIENTED_EDGE ( 'NONE', *, *, #237, .T. ) ;
#233 = DIRECTION ( 'NONE',  ( -0.0000000000000000000, -1.000000000000000000, -0.0000000000000000000 ) ) ;
#234 = CIRCLE ( 'NONE', #768, 11.30000000000000782 ) ;
#235 = VERTEX_POINT ( 'NONE', #54 ) ;
#236 = AXIS2_PLACEMENT_3D ( 'NONE', #939, #626, #482 ) ;
#237 = EDGE_CURVE ( 'NONE', #522, #6, #975, .T. ) ;
#238 = CARTESIAN_POINT ( 'NONE',  ( 0.0000000000000000000, 15.00000000000000000, 0.0000000000000000000 ) ) ;
#239 = CARTESIAN_POINT ( 'NONE',  ( -1.348403394913667563, 26.82036492133294914, -4.819555175252229873 ) ) ;
#240 = CONICAL_SURFACE ( 'NONE', #480, 11.30000000000000071, 0.7328151017865081052 ) ;
#241 = CARTESIAN_POINT ( 'NONE',  ( 1.383850883036509659E-15, 0.0000000000000000000, 11.30000000000000426 ) ) ;
#242 = DIRECTION ( 'NONE',  ( -0.0000000000000000000, -1.000000000000000000, -0.0000000000000000000 ) ) ;
#243 = UNCERTAINTY_MEASURE_WITH_UNIT (LENGTH_MEASURE( 1.000000000000000082E-05 ), #992, 'distance_accuracy_value', 'NONE');
#244 = FACE_OUTER_BOUND ( 'NONE', #638, .T. ) ;
#245 = EDGE_CURVE ( 'NONE', #142, #686, #1016, .T. ) ;
#246 = CYLINDRICAL_SURFACE ( 'NONE', #211, 9.300000000000006040 ) ;
#247 = CARTESIAN_POINT ( 'NONE',  ( 7.538327042388125033E-20, 24.90000000000001279, -12.99999999999998224 ) ) ;
#248 = EDGE_LOOP ( 'NONE', ( #741, #796, #420, #396, #401 ) ) ;
#249 = CARTESIAN_POINT ( 'NONE',  ( 8.756224613903579462E-16, 34.22908269693249395, -5.936214732711666997 ) ) ;
#250 = CARTESIAN_POINT ( 'NONE',  ( -3.888904748737149308, 27.67362140863831499, -12.40516732371009212 ) ) ;
#251 = ADVANCED_FACE ( 'NONE', ( #554 ), #800, .F. ) ;
#252 = AXIS2_PLACEMENT_3D ( 'NONE', #388, #624, #869 ) ;
#253 = CARTESIAN_POINT ( 'NONE',  ( 0.0000000000000000000, 0.0000000000000000000, 0.0000000000000000000 ) ) ;
#254 = CARTESIAN_POINT ( 'NONE',  ( -0.2686628143082991360, 24.90000000000001634, -12.99999999999998224 ) ) ;
#255 = VECTOR ( 'NONE', #69, 1000.000000000000000 ) ;
#256 = CARTESIAN_POINT ( 'NONE',  ( 0.0000000000000000000, 56.99999999999992895, -11.30000000000000249 ) ) ;
#257 = PRODUCT ( 'venturiOrifice', 'venturiOrifice', '', ( #679 ) ) ;
#258 = ADVANCED_FACE ( 'NONE', ( #593, #74 ), #772, .F. ) ;
#259 = CARTESIAN_POINT ( 'NONE',  ( 1.437304608288723115E-15, 33.10000000000000853, -12.99999999999998224 ) ) ;
#260 = DIRECTION ( 'NONE',  ( 0.0000000000000000000, 0.0000000000000000000, -1.000000000000000000 ) ) ;
#261 = DIRECTION ( 'NONE',  ( 0.0000000000000000000, 0.0000000000000000000, -1.000000000000000000 ) ) ;
#262 = EDGE_CURVE ( 'NONE', #6, #373, #688, .T. ) ;
#263 = CARTESIAN_POINT ( 'NONE',  ( 1.592040838891556532E-15, -2.081917822988180964E-16, 12.99999999999997513 ) ) ;
#264 = CARTESIAN_POINT ( 'NONE',  ( 1.067877009619208284, 32.96760199592338836, -12.95875582912288593 ) ) ;
#265 = ORIENTED_EDGE ( 'NONE', *, *, #226, .T. ) ;
#266 = CARTESIAN_POINT ( 'NONE',  ( 3.554743314399692267, 26.93980703992930259, -12.50548924061518363 ) ) ;
#267 = CIRCLE ( 'NONE', #505, 8.363785267288339043 ) ;
#268 = ORIENTED_EDGE ( 'NONE', *, *, #569, .T. ) ;
#269 = DIRECTION ( 'NONE',  ( 0.0000000000000000000, 1.000000000000000000, 0.0000000000000000000 ) ) ;
#270 = CARTESIAN_POINT ( 'NONE',  ( 0.0000000000000000000, 44.65580235342376625, 0.0000000000000000000 ) ) ;
#271 = AXIS2_PLACEMENT_3D ( 'NONE', #681, #520, #589 ) ;
#272 = DIRECTION ( 'NONE',  ( 0.0000000000000000000, 0.0000000000000000000, -1.000000000000000000 ) ) ;
#273 = ADVANCED_FACE ( 'NONE', ( #669 ), #357, .T. ) ;
#274 = APPLICATION_CONTEXT ( 'automotive_design' ) ;
#275 = CARTESIAN_POINT ( 'NONE',  ( 0.0000000000000000000, 44.65580235342376625, 0.0000000000000000000 ) ) ;
#276 = EDGE_LOOP ( 'NONE', ( #153, #301 ) ) ;
#277 = DIRECTION ( 'NONE',  ( 0.0000000000000000000, 1.000000000000000000, 0.0000000000000000000 ) ) ;
#278 = B_SPLINE_CURVE_WITH_KNOTS ( 'NONE', 3,
 ( #329, #890, #645, #653, #250, #580, #87, #808, #662, #811, #738, #340, #16, #960, #22, #168, #254, #247 ),
 .UNSPECIFIED., .F., .F.,
 ( 4, 2, 2, 2, 2, 2, 2, 2, 4 ),
 ( 0.006452617813529463314, 0.007258709428373715314, 0.008064801043217967313, 0.008870892658062221048, 0.009676984272906471313, 0.01048307588775072505, 0.01128916750259497705, 0.01209525911743922905, 0.01290135073228348105 ),
 .UNSPECIFIED. ) ;
#279 = CARTESIAN_POINT ( 'NONE',  ( -1.067442340778153476, 32.96770394247695180, -12.95878725576645962 ) ) ;
#280 = DIRECTION ( 'NONE',  ( -0.0000000000000000000, -0.0000000000000000000, 1.000000000000000000 ) ) ;
#281 = PRESENTATION_LAYER_ASSIGNMENT (  '', '', ( #1014 ) ) ;
#282 = FACE_OUTER_BOUND ( 'NONE', #541, .T. ) ;
#283 = ORIENTED_EDGE ( 'NONE', *, *, #516, .F. ) ;
#284 =( NAMED_UNIT ( * ) SI_UNIT ( $, .STERADIAN. ) SOLID_ANGLE_UNIT ( ) );
#285 = TOROIDAL_SURFACE ( 'NONE', #26, -2.699999999999983746, 11.99999999999998934 ) ;
#286 = ORIENTED_EDGE ( 'NONE', *, *, #363, .T. ) ;
#287 = CARTESIAN_POINT ( 'NONE',  ( -2.713249258039489131, 32.08526644336023992, -12.71516322233571294 ) ) ;
#288 = CARTESIAN_POINT ( 'NONE',  ( 0.0000000000000000000, 0.0000000000000000000, -9.300000000000006040 ) ) ;
#289 = EDGE_LOOP ( 'NONE', ( #860, #701, #994, #891, #798 ) ) ;
#290 = EDGE_CURVE ( 'NONE', #625, #412, #867, .T. ) ;
#291 = ADVANCED_FACE ( 'NONE', ( #296 ), #924, .F. ) ;
#292 = FACE_OUTER_BOUND ( 'NONE', #427, .T. ) ;
#293 = DIRECTION ( 'NONE',  ( -0.0000000000000000000, -1.000000000000000000, -0.0000000000000000000 ) ) ;
#294 = CARTESIAN_POINT ( 'NONE',  ( 1.813851170874190455, 30.81405205649332402, -4.731881133470018597 ) ) ;
#295 = ORIENTED_EDGE ( 'NONE', *, *, #874, .T. ) ;
#296 = FACE_OUTER_BOUND ( 'NONE', #854, .T. ) ;
#297 = CARTESIAN_POINT ( 'NONE',  ( 1.383850883036510053E-15, 46.99999999999993605, 11.30000000000000604 ) ) ;
#298 = CARTESIAN_POINT ( 'NONE',  ( -1.804938562686642480E-13, 31.55000000000014637, -5.162427245913839613 ) ) ;
#299 = ORIENTED_EDGE ( 'NONE', *, *, #19, .F. ) ;
#300 = EDGE_CURVE ( 'NONE', #868, #972, #435, .T. ) ;
#301 = ORIENTED_EDGE ( 'NONE', *, *, #414, .T. ) ;
#302 = DIRECTION ( 'NONE',  ( 1.000000000000000000, 0.0000000000000000000, -1.224646799147353207E-16 ) ) ;
#303 = CIRCLE ( 'NONE', #348, 12.99999999999997513 ) ;
#304 = CARTESIAN_POINT ( 'NONE',  ( 7.538327042388125033E-20, 24.90000000000001279, -12.99999999999998224 ) ) ;
#305 = CYLINDRICAL_SURFACE ( 'NONE', #66, 12.99999999999998224 ) ;
#306 = AXIS2_PLACEMENT_3D ( 'NONE', #122, #120, #117 ) ;
#307 = VERTEX_POINT ( 'NONE', #857 ) ;
#308 = EDGE_CURVE ( 'NONE', #192, #868, #957, .T. ) ;
#309 = DIRECTION ( 'NONE',  ( -0.0000000000000000000, -1.000000000000000000, -0.0000000000000000000 ) ) ;
#310 = AXIS2_PLACEMENT_3D ( 'NONE', #146, #217, #145 ) ;
#311 = ORIENTED_EDGE ( 'NONE', *, *, #308, .T. ) ;
#312 = CARTESIAN_POINT ( 'NONE',  ( 0.0000000000000000000, 44.65580235342376625, 2.699999999999983746 ) ) ;
#313 = FACE_OUTER_BOUND ( 'NONE', #949, .T. ) ;
#314 = MANIFOLD_SOLID_BREP ( 'Wytnij-wyciągnięcie3', #587 ) ;
#315 = CARTESIAN_POINT ( 'NONE',  ( 1.383850883036510251E-15, 46.99999999999993605, 11.30000000000000782 ) ) ;
#316 = VERTEX_POINT ( 'NONE', #889 ) ;
#317 = EDGE_CURVE ( 'NONE', #6, #165, #368, .T. ) ;
#318 = CIRCLE ( 'NONE', #719, 11.29999999999999893 ) ;
#319 = VERTEX_POINT ( 'NONE', #497 ) ;
#320 = CARTESIAN_POINT ( 'NONE',  ( 0.0000000000000000000, 46.99999999999993605, -11.30000000000000782 ) ) ;
#321 = CIRCLE ( 'NONE', #97, 8.080470245034012677 ) ;
#322 = ORIENTED_EDGE ( 'NONE', *, *, #951, .T. ) ;
#323 = CARTESIAN_POINT ( 'NONE',  ( 0.0000000000000000000, 0.0000000000000000000, 0.0000000000000000000 ) ) ;
#324 = CIRCLE ( 'NONE', #592, 8.219529754965988033 ) ;
#325 = CARTESIAN_POINT ( 'NONE',  ( 0.0000000000000000000, 44.65580235342376625, 0.0000000000000000000 ) ) ;
#326 = ORIENTED_EDGE ( 'NONE', *, *, #107, .T. ) ;
#327 = DIRECTION ( 'NONE',  ( 0.0000000000000000000, 0.0000000000000000000, -1.000000000000000000 ) ) ;
#328 = CARTESIAN_POINT ( 'NONE',  ( -2.415380484738162359, 29.86899925151223556, -4.378577257270869438 ) ) ;
#329 = CARTESIAN_POINT ( 'NONE',  ( -4.099999999999999645, 29.00000000000001066, -12.33653111697123528 ) ) ;
#330 = DIRECTION ( 'NONE',  ( 0.0000000000000000000, 0.0000000000000000000, -1.000000000000000000 ) ) ;
#331 = FACE_OUTER_BOUND ( 'NONE', #856, .T. ) ;
#332 = EDGE_LOOP ( 'NONE', ( #215, #311, #553, #910 ) ) ;
#333 = FACE_OUTER_BOUND ( 'NONE', #815, .T. ) ;
#334 = ADVANCED_FACE ( 'NONE', ( #1024 ), #403, .T. ) ;
#335 = VERTEX_POINT ( 'NONE', #256 ) ;
#336 = CARTESIAN_POINT ( 'NONE',  ( -0.1470576154478398789, 31.55000000000002203, -5.162427245913351115 ) ) ;
#337 = CARTESIAN_POINT ( 'NONE',  ( -0.5924710446363540273, 26.51535609376432490, -4.967244147508825591 ) ) ;
#338 = CIRCLE ( 'NONE', #884, 9.300000000000004263 ) ;
#339 = CARTESIAN_POINT ( 'NONE',  ( 1.383850883036509265E-15, 15.00000000000000000, 11.30000000000000071 ) ) ;
#340 = CARTESIAN_POINT ( 'NONE',  ( -2.060288403268169866, 25.44524640757494893, -12.83767202074013802 ) ) ;
#341 = ADVANCED_FACE ( 'NONE', ( #722 ), #940, .F. ) ;
#342 = CARTESIAN_POINT ( 'NONE',  ( 0.0000000000000000000, 0.0000000000000000000, 0.0000000000000000000 ) ) ;
#343 = ORIENTED_EDGE ( 'NONE', *, *, #89, .F. ) ;
#344 = LINE ( 'NONE', #832, #855 ) ;
#345 = ORIENTED_EDGE ( 'NONE', *, *, #569, .F. ) ;
#346 = DIRECTION ( 'NONE',  ( 0.0000000000000000000, 0.0000000000000000000, -1.000000000000000000 ) ) ;
#347 = CARTESIAN_POINT ( 'NONE',  ( 3.556410942470810799, 31.05775774284765589, -12.50503973503329647 ) ) ;
#348 = AXIS2_PLACEMENT_3D ( 'NONE', #652, #656, #735 ) ;
#349 = DIRECTION ( 'NONE',  ( -0.0000000000000000000, -1.000000000000000000, -0.0000000000000000000 ) ) ;
#350 = CARTESIAN_POINT ( 'NONE',  ( -1.378464505554589214, 31.16324521257082125, -4.919240134621434279 ) ) ;
#351 = CYLINDRICAL_SURFACE ( 'NONE', #370, 4.999999999999998224 ) ;
#352 = ORIENTED_EDGE ( 'NONE', *, *, #545, .F. ) ;
#353 = DIRECTION ( 'NONE',  ( -0.0000000000000000000, -1.000000000000000000, -0.0000000000000000000 ) ) ;
#354 =( GEOMETRIC_REPRESENTATION_CONTEXT ( 3 ) GLOBAL_UNCERTAINTY_ASSIGNED_CONTEXT ( ( #840 ) ) GLOBAL_UNIT_ASSIGNED_CONTEXT ( ( #831, #114, #1001 ) ) REPRESENTATION_CONTEXT ( 'NONE', 'WORKASPACE' ) );
#355 = CIRCLE ( 'NONE', #990, 4.099999999999999645 ) ;
#356 = CARTESIAN_POINT ( 'NONE',  ( 3.889355715253927759, 27.67488502538258643, -12.40502638953836723 ) ) ;
#357 = CONICAL_SURFACE ( 'NONE', #513, 11.30000000000000782, 0.5155490074589709204 ) ;
#358 = VERTEX_POINT ( 'NONE', #169 ) ;
#359 = CARTESIAN_POINT ( 'NONE',  ( 0.0000000000000000000, 40.00901254116265449, 0.0000000000000000000 ) ) ;
#360 = CARTESIAN_POINT ( 'NONE',  ( 1.024268285634045463E-15, 40.00901254116265449, -8.363785267288339043 ) ) ;
#361 = AXIS2_PLACEMENT_3D ( 'NONE', #685, #190, #995 ) ;
#362 = CARTESIAN_POINT ( 'NONE',  ( 1.821563729527734044, 25.31712079343588329, -12.87415776837399939 ) ) ;
#363 = EDGE_CURVE ( 'NONE', #522, #789, #826, .T. ) ;
#364 = EDGE_LOOP ( 'NONE', ( #734, #866, #512, #219 ) ) ;
#365 = CARTESIAN_POINT ( 'NONE',  ( 0.0000000000000000000, 26.60483206276493462, 4.999999999999998224 ) ) ;
#366 = ORIENTED_EDGE ( 'NONE', *, *, #140, .T. ) ;
#367 = CARTESIAN_POINT ( 'NONE',  ( 0.0000000000000000000, 18.42274471670445024, 0.0000000000000000000 ) ) ;
#368 = CIRCLE ( 'NONE', #567, 9.300000000000006040 ) ;
#369 = CARTESIAN_POINT ( 'NONE',  ( 0.0000000000000000000, 18.57725528329553200, 0.0000000000000000000 ) ) ;
#370 = AXIS2_PLACEMENT_3D ( 'NONE', #773, #935, #128 ) ;
#371 = VECTOR ( 'NONE', #765, 1000.000000000000000 ) ;
#372 = CARTESIAN_POINT ( 'NONE',  ( 0.0000000000000000000, 26.60483206276493462, 0.0000000000000000000 ) ) ;
#373 = VERTEX_POINT ( 'NONE', #973 ) ;
#374 = TOROIDAL_SURFACE ( 'NONE', #1007, 16.99999999999998579, 11.99999999999998934 ) ;
#375 = ORIENTED_EDGE ( 'NONE', *, *, #643, .T. ) ;
#376 = DIRECTION ( 'NONE',  ( -0.0000000000000000000, -1.000000000000000000, -0.0000000000000000000 ) ) ;
#377 = CARTESIAN_POINT ( 'NONE',  ( 1.377176291934549601, 31.16430737065757484, -4.919804617904564026 ) ) ;
#378 = ORIENTED_EDGE ( 'NONE', *, *, #748, .F. ) ;
#379 = EDGE_LOOP ( 'NONE', ( #322, #286 ) ) ;
#380 = CARTESIAN_POINT ( 'NONE',  ( 1.383850883036509462E-15, 56.99999999999992895, 11.30000000000000249 ) ) ;
#381 = FACE_OUTER_BOUND ( 'NONE', #499, .T. ) ;
#382 = DIRECTION ( 'NONE',  ( 0.0000000000000000000, 1.000000000000000000, 0.0000000000000000000 ) ) ;
#383 = AXIS2_PLACEMENT_3D ( 'NONE', #540, #617, #1006 ) ;
#384 = EDGE_CURVE ( 'NONE', #1013, #389, #4, .T. ) ;
#385 = ORIENTED_EDGE ( 'NONE', *, *, #37, .T. ) ;
#386 = DIRECTION ( 'NONE',  ( 0.0000000000000000000, -0.8700221858486163473, -0.4930125719808732265 ) ) ;
#387 = ORIENTED_EDGE ( 'NONE', *, *, #58, .T. ) ;
#388 = CARTESIAN_POINT ( 'NONE',  ( 2.081899558550499096E-15, 29.58229288467138929, -16.99999999999998579 ) ) ;
#389 = VERTEX_POINT ( 'NONE', #899 ) ;
#390 = DIRECTION ( 'NONE',  ( -1.000000000000000000, 0.0000000000000000000, 0.0000000000000000000 ) ) ;
#391 = CARTESIAN_POINT ( 'NONE',  ( -1.757485707267328445, 27.13445858252310572, -4.685888153964659075 ) ) ;
#392 = LINE ( 'NONE', #694, #371 ) ;
#393 = ORIENTED_EDGE ( 'NONE', *, *, #308, .F. ) ;
#394 = AXIS2_PLACEMENT_3D ( 'NONE', #637, #550, #631 ) ;
#395 = FACE_OUTER_BOUND ( 'NONE', #438, .T. ) ;
#396 = ORIENTED_EDGE ( 'NONE', *, *, #134, .T. ) ;
#397 = CARTESIAN_POINT ( 'NONE',  ( 0.0000000000000000000, 29.58229288467138929, 0.0000000000000000000 ) ) ;
#398 = FACE_OUTER_BOUND ( 'NONE', #289, .T. ) ;
#399 = FACE_OUTER_BOUND ( 'NONE', #963, .T. ) ;
#400 = AXIS2_PLACEMENT_3D ( 'NONE', #914, #518, #991 ) ;
#401 = ORIENTED_EDGE ( 'NONE', *, *, #110, .T. ) ;
#402 = DIRECTION ( 'NONE',  ( 0.0000000000000000000, 0.0000000000000000000, -1.000000000000000000 ) ) ;
#403 = CYLINDRICAL_SURFACE ( 'NONE', #983, 11.30000000000000426 ) ;
#404 = CARTESIAN_POINT ( 'NONE',  ( -1.123402672022122850, 26.69557143176631797, -4.878689012989334550 ) ) ;
#405 = ORIENTED_EDGE ( 'NONE', *, *, #974, .F. ) ;
#406 = VECTOR ( 'NONE', #932, 1000.000000000000000 ) ;
#407 = ORIENTED_EDGE ( 'NONE', *, *, #643, .F. ) ;
#408 = CARTESIAN_POINT ( 'NONE',  ( -1.935396023653601194, 27.31993067793631980, -4.613106539253639227 ) ) ;
#409 = CARTESIAN_POINT ( 'NONE',  ( 2.482626632512643816, 29.58229288467138929, -4.340111174098990610 ) ) ;
#410 = DIRECTION ( 'NONE',  ( 0.0000000000000000000, 0.0000000000000000000, -1.000000000000000000 ) ) ;
#411 = ORIENTED_EDGE ( 'NONE', *, *, #764, .T. ) ;
#412 = VERTEX_POINT ( 'NONE', #409 ) ;
#413 = AXIS2_PLACEMENT_3D ( 'NONE', #763, #699, #853 ) ;
#414 = EDGE_CURVE ( 'NONE', #976, #640, #303, .T. ) ;
#415 = DIRECTION ( 'NONE',  ( 0.0000000000000000000, 0.0000000000000000000, -1.000000000000000000 ) ) ;
#416 = CARTESIAN_POINT ( 'NONE',  ( 0.0000000000000000000, 46.99999999999993605, 0.0000000000000000000 ) ) ;
#417 = SHAPE_DEFINITION_REPRESENTATION ( #601, #129 ) ;
#418 = CARTESIAN_POINT ( 'NONE',  ( -0.5802928548991554969, 31.48738616538800272, -5.121424590745340844 ) ) ;
#419 = CARTESIAN_POINT ( 'NONE',  ( 0.0000000000000000000, 18.57725528329553200, -8.080470245034012677 ) ) ;
#420 = ORIENTED_EDGE ( 'NONE', *, *, #83, .F. ) ;
#421 = AXIS2_PLACEMENT_3D ( 'NONE', #644, #555, #84 ) ;
#422 = FACE_OUTER_BOUND ( 'NONE', #39, .T. ) ;
#423 = ORIENTED_EDGE ( 'NONE', *, *, #561, .T. ) ;
#424 = ADVANCED_FACE ( 'NONE', ( #921 ), #1015, .T. ) ;
#425 = CARTESIAN_POINT ( 'NONE',  ( 0.2976650721410680767, 26.46308240647276477, -4.994101860735896459 ) ) ;
#426 = DIRECTION ( 'NONE',  ( -0.0000000000000000000, -1.000000000000000000, -0.0000000000000000000 ) ) ;
#427 = EDGE_LOOP ( 'NONE', ( #139, #484, #478, #202 ) ) ;
#428 = CARTESIAN_POINT ( 'NONE',  ( -1.812240616885974376, 30.81537274114521807, -4.732584328761006098 ) ) ;
#429 = ORIENTED_EDGE ( 'NONE', *, *, #1000, .F. ) ;
#430 = ADVANCED_FACE ( 'NONE', ( #381 ), #710, .F. ) ;
#431 = CARTESIAN_POINT ( 'NONE',  ( 0.7353170093917127392, 26.55379220567120058, -4.947670581796637990 ) ) ;
#432 = CARTESIAN_POINT ( 'NONE',  ( 0.0000000000000000000, 0.0000000000000000000, -11.30000000000000071 ) ) ;
#433 = CARTESIAN_POINT ( 'NONE',  ( 0.5386614349626300813, 24.92649412108595897, -12.99156984417887628 ) ) ;
#434 = ORIENTED_EDGE ( 'NONE', *, *, #491, .F. ) ;
#435 = LINE ( 'NONE', #705, #159 ) ;
#436 = ORIENTED_EDGE ( 'NONE', *, *, #214, .F. ) ;
#437 = CARTESIAN_POINT ( 'NONE',  ( 3.087883625822898104, 31.71027413007275442, -12.62941431859094088 ) ) ;
#438 = EDGE_LOOP ( 'NONE', ( #515, #434, #801, #345, #429 ) ) ;
#439 = AXIS2_PLACEMENT_3D ( 'NONE', #588, #511, #41 ) ;
#440 = CARTESIAN_POINT ( 'NONE',  ( 7.538327042388125033E-20, 24.90000000000001279, -12.99999999999998224 ) ) ;
#441 = EDGE_CURVE ( 'NONE', #972, #498, #474, .T. ) ;
#442 = ADVANCED_FACE ( 'NONE', ( #616 ), #305, .T. ) ;
#443 = CARTESIAN_POINT ( 'NONE',  ( 0.0000000000000000000, 31.99999999999995737, 0.0000000000000000000 ) ) ;
#444 = CARTESIAN_POINT ( 'NONE',  ( 3.967281795310943604, 27.93109499896988268, -12.37997362911785793 ) ) ;
#445 = EDGE_LOOP ( 'NONE', ( #490, #423, #111, #174, #150 ) ) ;
#446 = CARTESIAN_POINT ( 'NONE',  ( 0.0000000000000000000, 0.0000000000000000000, 0.0000000000000000000 ) ) ;
#447 = CARTESIAN_POINT ( 'NONE',  ( 0.0000000000000000000, 29.58229288467138929, 0.0000000000000000000 ) ) ;
#448 = CARTESIAN_POINT ( 'NONE',  ( -2.059784416069213808, 32.55511683810853896, -12.83776673797064483 ) ) ;
#449 = DIRECTION ( 'NONE',  ( 0.0000000000000000000, 0.0000000000000000000, -1.000000000000000000 ) ) ;
#450 = DIRECTION ( 'NONE',  ( 0.0000000000000000000, 1.000000000000000000, 0.0000000000000000000 ) ) ;
#451 = ORIENTED_EDGE ( 'NONE', *, *, #68, .T. ) ;
#452 = EDGE_LOOP ( 'NONE', ( #1023, #232, #183, #594 ) ) ;
#453 = APPLICATION_PROTOCOL_DEFINITION ( 'draft international standard', 'automotive_design', 1998, #274 ) ;
#454 = CARTESIAN_POINT ( 'NONE',  ( 2.482626632512643816, 29.58229288467138929, -4.340111174098990610 ) ) ;
#455 = DIRECTION ( 'NONE',  ( 0.0000000000000000000, 0.0000000000000000000, 1.000000000000000000 ) ) ;
#456 = AXIS2_PLACEMENT_3D ( 'NONE', #502, #575, #164 ) ;
#457 = CIRCLE ( 'NONE', #310, 11.99999999999998934 ) ;
#458 = ORIENTED_EDGE ( 'NONE', *, *, #709, .F. ) ;
#459 = CIRCLE ( 'NONE', #543, 5.936214732711666109 ) ;
#460 = CARTESIAN_POINT ( 'NONE',  ( 2.549999999999996270, 29.00000000000001066, -4.300872004605578169 ) ) ;
#461 = DIRECTION ( 'NONE',  ( -0.0000000000000000000, -1.000000000000000000, -0.0000000000000000000 ) ) ;
#462 = ORIENTED_EDGE ( 'NONE', *, *, #1009, .T. ) ;
#463 = CARTESIAN_POINT ( 'NONE',  ( 2.549999999999996270, 29.00000000000001066, -12.99999999999998934 ) ) ;
#464 = LINE ( 'NONE', #463, #64 ) ;
#465 = DIRECTION ( 'NONE',  ( 0.0000000000000000000, 0.9219821056073609356, 0.3872324843550927764 ) ) ;
#466 = DIRECTION ( 'NONE',  ( 0.0000000000000000000, 0.0000000000000000000, 1.000000000000000000 ) ) ;
#467 = EDGE_CURVE ( 'NONE', #668, #792, #597, .T. ) ;
#468 = DIRECTION ( 'NONE',  ( 0.0000000000000000000, 0.0000000000000000000, -1.000000000000000000 ) ) ;
#469 = LINE ( 'NONE', #315, #583 ) ;
#470 = VERTEX_POINT ( 'NONE', #45 ) ;
#471 = EDGE_LOOP ( 'NONE', ( #989, #636, #116, #393 ) ) ;
#472 = FILL_AREA_STYLE_COLOUR ( '', #988 ) ;
#473 = CARTESIAN_POINT ( 'NONE',  ( 2.338662401917967149, 27.97541693343215741, -4.419824664270422865 ) ) ;
#474 = CIRCLE ( 'NONE', #306, 12.99999999999998934 ) ;
#475 = CYLINDRICAL_SURFACE ( 'NONE', #162, 9.300000000000006040 ) ;
#476 = CARTESIAN_POINT ( 'NONE',  ( 2.223433130293917870, 27.74482773869333840, -4.478899084389962759 ) ) ;
#477 = EDGE_CURVE ( 'NONE', #686, #142, #888, .T. ) ;
#478 = ORIENTED_EDGE ( 'NONE', *, *, #1030, .T. ) ;
#479 = DIRECTION ( 'NONE',  ( 0.0000000000000000000, 0.0000000000000000000, -1.000000000000000000 ) ) ;
#480 = AXIS2_PLACEMENT_3D ( 'NONE', #238, #79, #954 ) ;
#481 = LINE ( 'NONE', #241, #818 ) ;
#482 = DIRECTION ( 'NONE',  ( 0.0000000000000000000, 0.0000000000000000000, -1.000000000000000000 ) ) ;
#483 = CONICAL_SURFACE ( 'NONE', #536, 4.999999999999997335, 0.3976279915221304084 ) ;
#484 = ORIENTED_EDGE ( 'NONE', *, *, #1021, .T. ) ;
#485 = CARTESIAN_POINT ( 'NONE',  ( 0.0000000000000000000, 0.0000000000000000000, -12.99999999999998224 ) ) ;
#486 = CYLINDRICAL_SURFACE ( 'NONE', #894, 4.099999999999999645 ) ;
#487 = ORIENTED_EDGE ( 'NONE', *, *, #557, .T. ) ;
#488 = CARTESIAN_POINT ( 'NONE',  ( 0.0000000000000000000, 18.42274471670445024, 0.0000000000000000000 ) ) ;
#489 = STYLED_ITEM ( 'NONE', ( #700 ), #314 ) ;
#490 = ORIENTED_EDGE ( 'NONE', *, *, #46, .F. ) ;
#491 = EDGE_CURVE ( 'NONE', #917, #1005, #459, .T. ) ;
#492 = CARTESIAN_POINT ( 'NONE',  ( -2.224470724097972862, 27.74665541269172664, -4.478383180216101600 ) ) ;
#493 = FACE_OUTER_BOUND ( 'NONE', #716, .T. ) ;
#494 = PLANE ( 'NONE',  #675 ) ;
#495 = CARTESIAN_POINT ( 'NONE',  ( -2.157411269523088038, 27.63451499899736419, -4.511341711936089460 ) ) ;
#496 = AXIS2_PLACEMENT_3D ( 'NONE', #446, #51, #671 ) ;
#497 = CARTESIAN_POINT ( 'NONE',  ( -2.482626632512643816, 29.58229288467138929, -4.340111174098990610 ) ) ;
#498 = VERTEX_POINT ( 'NONE', #42 ) ;
#499 = EDGE_LOOP ( 'NONE', ( #568, #352, #646, #812 ) ) ;
#500 = CARTESIAN_POINT ( 'NONE',  ( 1.671849785224441754E-14, 26.45000000000000639, -5.000998915228822561 ) ) ;
#501 = DIRECTION ( 'NONE',  ( 0.0000000000000000000, 0.0000000000000000000, -1.000000000000000000 ) ) ;
#502 = CARTESIAN_POINT ( 'NONE',  ( 0.0000000000000000000, 26.60483206276493462, 0.0000000000000000000 ) ) ;
#503 = ADVANCED_FACE ( 'NONE', ( #156 ), #246, .F. ) ;
#504 = FILL_AREA_STYLE ('',( #472 ) ) ;
#505 = AXIS2_PLACEMENT_3D ( 'NONE', #897, #817, #105 ) ;
#506 = DIRECTION ( 'NONE',  ( 0.0000000000000000000, 0.0000000000000000000, -1.000000000000000000 ) ) ;
#507 = CIRCLE ( 'NONE', #627, 4.999999999999998224 ) ;
#508 = B_SPLINE_CURVE_WITH_KNOTS ( 'NONE', 3,
 ( #154, #151, #795, #230 ),
 .UNSPECIFIED., .F., .F.,
 ( 4, 4 ),
 ( 0.003167671160078763121, 0.003751045607992671994 ),
 .UNSPECIFIED. ) ;
#509 = ADVANCED_FACE ( 'NONE', ( #185 ), #695, .F. ) ;
#510 = DIRECTION ( 'NONE',  ( 0.0000000000000000000, 1.000000000000000000, 0.0000000000000000000 ) ) ;
#511 = DIRECTION ( 'NONE',  ( 0.0000000000000000000, 0.0000000000000000000, 1.000000000000000000 ) ) ;
#512 = ORIENTED_EDGE ( 'NONE', *, *, #516, .T. ) ;
#513 = AXIS2_PLACEMENT_3D ( 'NONE', #200, #210, #449 ) ;
#514 = VECTOR ( 'NONE', #376, 1000.000000000000000 ) ;
#515 = ORIENTED_EDGE ( 'NONE', *, *, #661, .F. ) ;
#516 = EDGE_CURVE ( 'NONE', #919, #316, #33, .T. ) ;
#517 = CARTESIAN_POINT ( 'NONE',  ( 2.712205662784055171, 32.08618722528769496, -12.71538720448642934 ) ) ;
#518 = DIRECTION ( 'NONE',  ( -0.0000000000000000000, -0.0000000000000000000, -1.000000000000000000 ) ) ;
#519 = CARTESIAN_POINT ( 'NONE',  ( 1.329621246940901225, 32.88767204354420670, -12.93422870618855747 ) ) ;
#520 = DIRECTION ( 'NONE',  ( -0.0000000000000000000, -1.000000000000000000, -0.0000000000000000000 ) ) ;
#521 = CARTESIAN_POINT ( 'NONE',  ( -3.088748658408335235, 31.70928446050930205, -12.62920144079074802 ) ) ;
#522 = VERTEX_POINT ( 'NONE', #822 ) ;
#523 = APPLICATION_PROTOCOL_DEFINITION ( 'draft international standard', 'automotive_design', 1998, #845 ) ;
#524 = DIRECTION ( 'NONE',  ( 1.000000000000000000, 0.0000000000000000000, 0.0000000000000000000 ) ) ;
#525 = AXIS2_PLACEMENT_3D ( 'NONE', #591, #982, #196 ) ;
#526 = EDGE_CURVE ( 'NONE', #1027, #470, #48, .T. ) ;
#527 = CARTESIAN_POINT ( 'NONE',  ( -4.099999999999999645, 29.00000000000001066, -12.33653111697123528 ) ) ;
#528 = CARTESIAN_POINT ( 'NONE',  ( 2.527575128370001867, 29.39065335782084176, -4.314399774452637004 ) ) ;
#529 = CARTESIAN_POINT ( 'NONE',  ( -3.967934722923915469, 30.06704585402070506, -12.37976518175391405 ) ) ;
#530 = VECTOR ( 'NONE', #971, 1000.000000000000000 ) ;
#531 = CARTESIAN_POINT ( 'NONE',  ( 0.0000000000000000000, 29.00000000000001066, -7.000000000000000000 ) ) ;
#532 = CARTESIAN_POINT ( 'NONE',  ( 2.415249992743182528, 29.86955560881625615, -4.378651901188909790 ) ) ;
#533 = ORIENTED_EDGE ( 'NONE', *, *, #977, .F. ) ;
#534 = CIRCLE ( 'NONE', #904, 11.99999999999998934 ) ;
#535 = ORIENTED_EDGE ( 'NONE', *, *, #441, .T. ) ;
#536 = AXIS2_PLACEMENT_3D ( 'NONE', #443, #189, #119 ) ;
#537 = PRODUCT_DEFINITION_CONTEXT ( 'detailed design', #274, 'design' ) ;
#538 = CARTESIAN_POINT ( 'NONE',  ( 0.0000000000000000000, 44.65580235342376625, -9.300000000000006040 ) ) ;
#539 = CONICAL_SURFACE ( 'NONE', #622, 4.999999999999997335, 0.3976279915221304084 ) ;
#540 = CARTESIAN_POINT ( 'NONE',  ( 0.0000000000000000000, 29.00000000000001066, -7.000000000000000000 ) ) ;
#541 = EDGE_LOOP ( 'NONE', ( #407, #578, #92, #901, #436 ) ) ;
#542 = DIRECTION ( 'NONE',  ( 1.000000000000000000, 0.0000000000000000000, 0.0000000000000000000 ) ) ;
#543 = AXIS2_PLACEMENT_3D ( 'NONE', #987, #909, #829 ) ;
#544 = DIRECTION ( 'NONE',  ( 0.0000000000000000000, 0.0000000000000000000, 1.000000000000000000 ) ) ;
#545 = EDGE_CURVE ( 'NONE', #50, #1017, #324, .T. ) ;
#546 = ORIENTED_EDGE ( 'NONE', *, *, #977, .T. ) ;
#547 = CARTESIAN_POINT ( 'NONE',  ( 1.757834455177891941, 27.13501649744847910, -4.685688298658540418 ) ) ;
#548 = FACE_OUTER_BOUND ( 'NONE', #755, .T. ) ;
#549 = VERTEX_POINT ( 'NONE', #32 ) ;
#550 = DIRECTION ( 'NONE',  ( -0.0000000000000000000, -1.000000000000000000, -0.0000000000000000000 ) ) ;
#551 = CARTESIAN_POINT ( 'NONE',  ( 2.157632757470900220, 27.63485668985510557, -4.511236564531088788 ) ) ;
#552 = EDGE_CURVE ( 'NONE', #917, #373, #841, .T. ) ;
#553 = ORIENTED_EDGE ( 'NONE', *, *, #300, .T. ) ;
#554 = FACE_OUTER_BOUND ( 'NONE', #577, .T. ) ;
#555 = DIRECTION ( 'NONE',  ( 0.0000000000000000000, -1.000000000000000000, -0.0000000000000000000 ) ) ;
#556 = AXIS2_PLACEMENT_3D ( 'NONE', #275, #604, #610 ) ;
#557 = EDGE_CURVE ( 'NONE', #686, #235, #198, .T. ) ;
#558 = DIRECTION ( 'NONE',  ( -0.0000000000000000000, -1.000000000000000000, -0.0000000000000000000 ) ) ;
#559 = DIRECTION ( 'NONE',  ( -0.0000000000000000000, -1.000000000000000000, -0.0000000000000000000 ) ) ;
#560 = AXIS2_PLACEMENT_3D ( 'NONE', #397, #86, #876 ) ;
#561 = EDGE_CURVE ( 'NONE', #689, #549, #88, .T. ) ;
#562 = DIRECTION ( 'NONE',  ( 0.0000000000000000000, 0.0000000000000000000, 1.000000000000000000 ) ) ;
#563 = DIRECTION ( 'NONE',  ( -0.0000000000000000000, -1.000000000000000000, -0.0000000000000000000 ) ) ;
#564 = ORIENTED_EDGE ( 'NONE', *, *, #384, .T. ) ;
#565 = B_SPLINE_CURVE_WITH_KNOTS ( 'NONE', 3,
 ( #731, #336, #24, #418, #967, #21, #350, #428, #978, #649, #328, #574 ),
 .UNSPECIFIED., .F., .F.,
 ( 4, 2, 2, 2, 2, 4 ),
 ( 0.003508579824818506849, 0.003946327418064254564, 0.004384075011310001845, 0.005259570197801490335, 0.006135065384292978825, 0.007010560570784467316 ),
 .UNSPECIFIED. ) ;
#566 = CARTESIAN_POINT ( 'NONE',  ( 4.100000000000328271, 29.00000000000048672, -12.33653111697116955 ) ) ;
#567 = AXIS2_PLACEMENT_3D ( 'NONE', #966, #102, #175 ) ;
#568 = ORIENTED_EDGE ( 'NONE', *, *, #107, .F. ) ;
#569 = EDGE_CURVE ( 'NONE', #319, #625, #507, .T. ) ;
#570 = CARTESIAN_POINT ( 'NONE',  ( 0.0000000000000000000, 26.60483206276493462, 0.0000000000000000000 ) ) ;
#571 = CARTESIAN_POINT ( 'NONE',  ( -2.388331131113835326, 28.09706320778033728, -4.392942203946001101 ) ) ;
#572 = B_SPLINE_CURVE_WITH_KNOTS ( 'NONE', 3,
 ( #672, #187, #986, #746, #750, #922, #347, #182, #437, #517, #912, #683, #920, #519, #264, #993, #680, #665 ),
 .UNSPECIFIED., .F., .F.,
 ( 4, 2, 2, 2, 2, 2, 2, 2, 4 ),
 ( 0.01935028336549498088, 0.02015640918356124273, 0.02096253500162750805, 0.02176866081969377337, 0.02257478663776003522, 0.02338091245582629707, 0.02418703827389256239, 0.02499316409195882771, 0.02579928991002508956 ),
 .UNSPECIFIED. ) ;
#573 = ADVANCED_FACE ( 'NONE', ( #493 ), #475, .F. ) ;
#574 = CARTESIAN_POINT ( 'NONE',  ( -2.482626632512643816, 29.58229288467138929, -4.340111174098990610 ) ) ;
#575 = DIRECTION ( 'NONE',  ( -0.0000000000000000000, -1.000000000000000000, -0.0000000000000000000 ) ) ;
#576 = DIRECTION ( 'NONE',  ( 1.000000000000000000, 0.0000000000000000000, 0.0000000000000000000 ) ) ;
#577 = EDGE_LOOP ( 'NONE', ( #56, #487, #299, #385, #72, #621, #805 ) ) ;
#578 = ORIENTED_EDGE ( 'NONE', *, *, #37, .F. ) ;
#579 = CARTESIAN_POINT ( 'NONE',  ( 0.1497160518108826555, 26.45000000000000639, -5.000998915228674235 ) ) ;
#580 = CARTESIAN_POINT ( 'NONE',  ( -3.681446042295989596, 27.17522183539035296, -12.46830828587656192 ) ) ;
#581 = ADVANCED_FACE ( 'NONE', ( #282 ), #71, .T. ) ;
#582 = DIRECTION ( 'NONE',  ( -0.0000000000000000000, -1.000000000000000000, -0.0000000000000000000 ) ) ;
#583 = VECTOR ( 'NONE', #872, 1000.000000000000000 ) ;
#584 = DIRECTION ( 'NONE',  ( -1.000000000000000000, 0.0000000000000000000, 0.0000000000000000000 ) ) ;
#585 = CARTESIAN_POINT ( 'NONE',  ( 2.549999999999996270, 29.00000000000001066, -7.000000000000000000 ) ) ;
#586 = AXIS2_PLACEMENT_3D ( 'NONE', #29, #584, #902 ) ;
#587 = CLOSED_SHELL ( 'NONE', ( #341, #251, #907, #809, #166, #771, #813, #31, #442, #655, #424, #503, #1010, #659, #573, #740, #334, #273, #898, #821, #729, #509, #596, #101, #109, #430, #581, #291, #94, #258 ) ) ;
#588 = CARTESIAN_POINT ( 'NONE',  ( 0.0000000000000000000, 29.00000000000001066, -7.000000000000000000 ) ) ;
#589 = DIRECTION ( 'NONE',  ( 0.0000000000000000000, 0.0000000000000000000, -1.000000000000000000 ) ) ;
#590 = DIRECTION ( 'NONE',  ( 4.742230224913418973E-17, 0.9219821056073609356, -0.3872324843550927764 ) ) ;
#591 = CARTESIAN_POINT ( 'NONE',  ( -8.572527594031335139E-17, 10.39516793723504406, -0.6999999999999888534 ) ) ;
#592 = AXIS2_PLACEMENT_3D ( 'NONE', #367, #461, #929 ) ;
#593 = FACE_OUTER_BOUND ( 'NONE', #726, .T. ) ;
#594 = ORIENTED_EDGE ( 'NONE', *, *, #226, .F. ) ;
#595 = EDGE_CURVE ( 'NONE', #335, #868, #392, .T. ) ;
#596 = ADVANCED_FACE ( 'NONE', ( #333 ), #351, .F. ) ;
#597 = B_SPLINE_CURVE_WITH_KNOTS ( 'NONE', 3,
 ( #440, #113, #433, #602, #837, #362, #667, #184, #118, #747, #36, #266, #193, #356, #444, #923, #742, #825 ),
 .UNSPECIFIED., .F., .F.,
 ( 4, 2, 2, 2, 2, 2, 2, 2, 4 ),
 ( 0.01290135073228348105, 0.01370746731143491874, 0.01451358389058635644, 0.01531970046973779240, 0.01612581704888923009, 0.01693193362804066779, 0.01773805020719210548, 0.01854416678634354318, 0.01935028336549498088 ),
 .UNSPECIFIED. ) ;
#598 = ORIENTED_EDGE ( 'NONE', *, *, #874, .F. ) ;
#599 = LINE ( 'NONE', #225, #255 ) ;
#600 = CARTESIAN_POINT ( 'NONE',  ( -3.888344770067378775, 30.32739933660430154, -12.40533113221443173 ) ) ;
#601 = PRODUCT_DEFINITION_SHAPE ( 'NONE', 'NONE',  #999 ) ;
#602 = CARTESIAN_POINT ( 'NONE',  ( 1.070717654151674081, 25.03298979177627004, -12.95857271703878055 ) ) ;
#603 = CARTESIAN_POINT ( 'NONE',  ( -3.557439626726228710, 31.05601745064852892, -12.50474807216894568 ) ) ;
#604 = DIRECTION ( 'NONE',  ( -0.0000000000000000000, -1.000000000000000000, -0.0000000000000000000 ) ) ;
#605 = VECTOR ( 'NONE', #762, 1000.000000000000000 ) ;
#606 = ORIENTED_EDGE ( 'NONE', *, *, #290, .T. ) ;
#607 = DIRECTION ( 'NONE',  ( -0.0000000000000000000, -0.0000000000000000000, 1.000000000000000000 ) ) ;
#608 = ORIENTED_EDGE ( 'NONE', *, *, #205, .F. ) ;
#609 = AXIS2_PLACEMENT_3D ( 'NONE', #873, #717, #260 ) ;
#610 = DIRECTION ( 'NONE',  ( 0.0000000000000000000, 0.0000000000000000000, -1.000000000000000000 ) ) ;
#611 = DIRECTION ( 'NONE',  ( -0.0000000000000000000, -1.000000000000000000, -0.0000000000000000000 ) ) ;
#612 = ORIENTED_EDGE ( 'NONE', *, *, #880, .F. ) ;
#613 = AXIS2_PLACEMENT_3D ( 'NONE', #938, #382, #466 ) ;
#614 = CARTESIAN_POINT ( 'NONE',  ( 0.7234766955391457310, 31.44952909443322753, -5.096873665157741762 ) ) ;
#615 = TOROIDAL_SURFACE ( 'NONE', #220, 16.99999999999998579, 11.99999999999998934 ) ;
#616 = FACE_OUTER_BOUND ( 'NONE', #767, .T. ) ;
#617 = DIRECTION ( 'NONE',  ( 0.0000000000000000000, 0.0000000000000000000, 1.000000000000000000 ) ) ;
#618 = DIRECTION ( 'NONE',  ( 0.0000000000000000000, 0.0000000000000000000, 1.000000000000000000 ) ) ;
#619 = ORIENTED_EDGE ( 'NONE', *, *, #140, .F. ) ;
#620 = CIRCLE ( 'NONE', #525, 11.99999999999998934 ) ;
#621 = ORIENTED_EDGE ( 'NONE', *, *, #715, .F. ) ;
#622 = AXIS2_PLACEMENT_3D ( 'NONE', #1018, #221, #544 ) ;
#623 = EDGE_CURVE ( 'NONE', #412, #358, #806, .T. ) ;
#624 = DIRECTION ( 'NONE',  ( 1.000000000000000000, -0.0000000000000000000, 1.224646799147353207E-16 ) ) ;
#625 = VERTEX_POINT ( 'NONE', #208 ) ;
#626 = DIRECTION ( 'NONE',  ( -0.0000000000000000000, -1.000000000000000000, -0.0000000000000000000 ) ) ;
#627 = AXIS2_PLACEMENT_3D ( 'NONE', #849, #450, #618 ) ;
#628 = CARTESIAN_POINT ( 'NONE',  ( 0.0000000000000000000, 43.99999999999991473, 0.0000000000000000000 ) ) ;
#629 = EDGE_CURVE ( 'NONE', #165, #108, #749, .T. ) ;
#630 = CARTESIAN_POINT ( 'NONE',  ( -2.549999999999996270, 29.00000000000001066, -7.000000000000000000 ) ) ;
#631 = DIRECTION ( 'NONE',  ( 0.0000000000000000000, 0.0000000000000000000, -1.000000000000000000 ) ) ;
#632 = FACE_OUTER_BOUND ( 'NONE', #248, .T. ) ;
#633 = ORIENTED_EDGE ( 'NONE', *, *, #1030, .F. ) ;
#634 = AXIS2_PLACEMENT_3D ( 'NONE', #1, #804, #10 ) ;
#635 = CARTESIAN_POINT ( 'NONE',  ( 1.344177834374804537, 26.82917731568327113, -4.817353182800280464 ) ) ;
#636 = ORIENTED_EDGE ( 'NONE', *, *, #730, .T. ) ;
#637 = CARTESIAN_POINT ( 'NONE',  ( 0.0000000000000000000, -2.081917822988180964E-16, 0.0000000000000000000 ) ) ;
#638 = EDGE_LOOP ( 'NONE', ( #660, #375, #378, #612, #770 ) ) ;
#639 = CIRCLE ( 'NONE', #439, 4.099999999999999645 ) ;
#640 = VERTEX_POINT ( 'NONE', #67 ) ;
#641 = DIRECTION ( 'NONE',  ( 0.0000000000000000000, 0.0000000000000000000, 1.000000000000000000 ) ) ;
#642 = AXIS2_PLACEMENT_3D ( 'NONE', #369, #839, #1002 ) ;
#643 = EDGE_CURVE ( 'NONE', #307, #27, #900, .T. ) ;
#644 = CARTESIAN_POINT ( 'NONE',  ( 0.0000000000000000000, 56.99999999999992895, 0.0000000000000000000 ) ) ;
#645 = CARTESIAN_POINT ( 'NONE',  ( -4.072780236423366063, 28.45711629237067797, -12.34566938004990710 ) ) ;
#646 = ORIENTED_EDGE ( 'NONE', *, *, #709, .T. ) ;
#647 = VERTEX_POINT ( 'NONE', #380 ) ;
#648 = DIRECTION ( 'NONE',  ( 0.0000000000000000000, 0.0000000000000000000, -1.000000000000000000 ) ) ;
#649 = CARTESIAN_POINT ( 'NONE',  ( -2.299944875541606759, 30.13593197169522497, -4.454768495798483663 ) ) ;
#650 = CARTESIAN_POINT ( 'NONE',  ( -0.7352865142725293346, 26.55378106489827061, -4.947676002252204164 ) ) ;
#651 = AXIS2_PLACEMENT_3D ( 'NONE', #1020, #784, #711 ) ;
#652 = CARTESIAN_POINT ( 'NONE',  ( 0.0000000000000000000, -2.081917822988180964E-16, 0.0000000000000000000 ) ) ;
#653 = CARTESIAN_POINT ( 'NONE',  ( -3.967031316355129622, 27.92998873404631155, -12.38005467801981396 ) ) ;
#654 = ORIENTED_EDGE ( 'NONE', *, *, #60, .T. ) ;
#655 = ADVANCED_FACE ( 'NONE', ( #124 ), #936, .T. ) ;
#656 = DIRECTION ( 'NONE',  ( -0.0000000000000000000, -1.000000000000000000, -0.0000000000000000000 ) ) ;
#657 = ORIENTED_EDGE ( 'NONE', *, *, #205, .T. ) ;
#658 = CARTESIAN_POINT ( 'NONE',  ( -2.498762073329209521, 28.47435435562371708, -4.330906742955997757 ) ) ;
#659 = ADVANCED_FACE ( 'NONE', ( #399 ), #539, .F. ) ;
#660 = ORIENTED_EDGE ( 'NONE', *, *, #944, .F. ) ;
#661 = EDGE_CURVE ( 'NONE', #1005, #358, #115, .T. ) ;
#662 = CARTESIAN_POINT ( 'NONE',  ( -3.086451064107894826, 26.28795397105752585, -12.62978291151728882 ) ) ;
#663 =( LENGTH_UNIT ( ) NAMED_UNIT ( * ) SI_UNIT ( .MILLI., .METRE. ) );
#664 = CARTESIAN_POINT ( 'NONE',  ( 0.0000000000000000000, 34.22908269693249395, 5.936214732711666997 ) ) ;
#665 = CARTESIAN_POINT ( 'NONE',  ( 1.437304608288723115E-15, 33.10000000000000853, -12.99999999999998224 ) ) ;
#666 = AXIS2_PLACEMENT_3D ( 'NONE', #203, #846, #998 ) ;
#667 = CARTESIAN_POINT ( 'NONE',  ( 2.061468668548048999, 25.44591736351401678, -12.83748426532903686 ) ) ;
#668 = VERTEX_POINT ( 'NONE', #304 ) ;
#669 = FACE_OUTER_BOUND ( 'NONE', #332, .T. ) ;
#670 = ORIENTED_EDGE ( 'NONE', *, *, #677, .T. ) ;
#671 = DIRECTION ( 'NONE',  ( 1.000000000000000000, 0.0000000000000000000, 0.0000000000000000000 ) ) ;
#672 = CARTESIAN_POINT ( 'NONE',  ( 4.100000000000328271, 29.00000000000048672, -12.33653111697116955 ) ) ;
#673 = DIRECTION ( 'NONE',  ( 0.0000000000000000000, 0.0000000000000000000, -1.000000000000000000 ) ) ;
#674 = B_SPLINE_CURVE_WITH_KNOTS ( 'NONE', 3,
 ( #454, #528, #126, #460 ),
 .UNSPECIFIED., .F., .F.,
 ( 4, 4 ),
 ( 0.0000000000000000000, 0.0005870633854107682684 ),
 .UNSPECIFIED. ) ;
#675 = AXIS2_PLACEMENT_3D ( 'NONE', #14, #714, #881 ) ;
#676 = EDGE_LOOP ( 'NONE', ( #137, #177, #633, #885 ) ) ;
#677 = EDGE_CURVE ( 'NONE', #498, #972, #733, .T. ) ;
#678 = ORIENTED_EDGE ( 'NONE', *, *, #552, .T. ) ;
#679 = PRODUCT_CONTEXT ( 'NONE', #845, 'mechanical' ) ;
#680 = CARTESIAN_POINT ( 'NONE',  ( 0.2727033457623191381, 33.10000000000002274, -12.99999999999998401 ) ) ;
#681 = CARTESIAN_POINT ( 'NONE',  ( 0.0000000000000000000, 15.00000000000000000, 0.0000000000000000000 ) ) ;
#682 = CARTESIAN_POINT ( 'NONE',  ( -0.5408153822900227947, 33.07303651448297188, -12.99142482614511351 ) ) ;
#683 = CARTESIAN_POINT ( 'NONE',  ( 2.059119143083592451, 32.55546859310997831, -12.83786755039914595 ) ) ;
#684 = AXIS2_PLACEMENT_3D ( 'NONE', #372, #204, #455 ) ;
#685 = CARTESIAN_POINT ( 'NONE',  ( 0.0000000000000000000, -3.674005408715527721E-17, 0.0000000000000000000 ) ) ;
#686 = VERTEX_POINT ( 'NONE', #630 ) ;
#687 = EDGE_CURVE ( 'NONE', #1027, #919, #599, .T. ) ;
#688 = CIRCLE ( 'NONE', #131, 11.99999999999998934 ) ;
#689 = VERTEX_POINT ( 'NONE', #141 ) ;
#690 = DIRECTION ( 'NONE',  ( 0.0000000000000000000, 0.0000000000000000000, -1.000000000000000000 ) ) ;
#691 = TOROIDAL_SURFACE ( 'NONE', #810, -0.6999999999999888534, 11.99999999999998934 ) ;
#692 = FACE_OUTER_BOUND ( 'NONE', #75, .T. ) ;
#693 = CARTESIAN_POINT ( 'NONE',  ( 0.0000000000000000000, -3.674005408715527721E-17, 0.0000000000000000000 ) ) ;
#694 = CARTESIAN_POINT ( 'NONE',  ( 0.0000000000000000000, 0.0000000000000000000, -11.30000000000000426 ) ) ;
#695 = CONICAL_SURFACE ( 'NONE', #271, 11.30000000000000071, 0.7328151017865081052 ) ;
#696 = CARTESIAN_POINT ( 'NONE',  ( 1.999810498439806628, 30.60718019152034941, -4.631175260768165103 ) ) ;
#697 = AXIS2_PLACEMENT_3D ( 'NONE', #359, #269, #53 ) ;
#698 = VERTEX_POINT ( 'NONE', #70 ) ;
#699 = DIRECTION ( 'NONE',  ( -0.0000000000000000000, -0.0000000000000000000, 1.000000000000000000 ) ) ;
#700 = PRESENTATION_STYLE_ASSIGNMENT (( #905 ) ) ;
#701 = ORIENTED_EDGE ( 'NONE', *, *, #661, .T. ) ;
#702 = CARTESIAN_POINT ( 'NONE',  ( 0.2962007219280681780, 31.53692980929317358, -5.153751535071279477 ) ) ;
#703 = CARTESIAN_POINT ( 'NONE',  ( 0.0000000000000000000, 29.58229288467138929, 16.99999999999998579 ) ) ;
#704 = FACE_OUTER_BOUND ( 'NONE', #9, .T. ) ;
#705 = CARTESIAN_POINT ( 'NONE',  ( 0.0000000000000000000, 46.99999999999993605, -11.30000000000000782 ) ) ;
#706 = AXIS2_PLACEMENT_3D ( 'NONE', #323, #242, #330 ) ;
#707 = CARTESIAN_POINT ( 'NONE',  ( 2.549999999999996270, 29.00000000000001066, -4.300872004605578169 ) ) ;
#708 = LINE ( 'NONE', #195, #906 ) ;
#709 = EDGE_CURVE ( 'NONE', #50, #470, #457, .T. ) ;
#710 = TOROIDAL_SURFACE ( 'NONE', #753, -0.6999999999999888534, 11.99999999999998934 ) ;
#711 = DIRECTION ( 'NONE',  ( 1.224646799147352961E-16, 0.0000000000000000000, -1.000000000000000000 ) ) ;
#712 = ORIENTED_EDGE ( 'NONE', *, *, #300, .F. ) ;
#713 = CARTESIAN_POINT ( 'NONE',  ( 0.9988106296225276459, 26.65005425592105937, -4.900835037367957447 ) ) ;
#714 = DIRECTION ( 'NONE',  ( 0.0000000000000000000, -1.000000000000000000, -0.0000000000000000000 ) ) ;
#715 = EDGE_CURVE ( 'NONE', #698, #870, #736, .T. ) ;
#716 = EDGE_LOOP ( 'NONE', ( #130, #830, #265, #147 ) ) ;
#717 = DIRECTION ( 'NONE',  ( -0.0000000000000000000, -1.000000000000000000, -0.0000000000000000000 ) ) ;
#718 = CIRCLE ( 'NONE', #642, 8.080470245034012677 ) ;
#719 = AXIS2_PLACEMENT_3D ( 'NONE', #693, #293, #930 ) ;
#720 = ORIENTED_EDGE ( 'NONE', *, *, #83, .T. ) ;
#721 = CIRCLE ( 'NONE', #697, 8.363785267288339043 ) ;
#722 = FACE_OUTER_BOUND ( 'NONE', #445, .T. ) ;
#723 = VECTOR ( 'NONE', #465, 1000.000000000000000 ) ;
#724 = CARTESIAN_POINT ( 'NONE',  ( -2.549999999999996714, 28.86811098382458241, -4.300872004605579058 ) ) ;
#725 = DIRECTION ( 'NONE',  ( 0.0000000000000000000, 0.0000000000000000000, 1.000000000000000000 ) ) ;
#726 = EDGE_LOOP ( 'NONE', ( #35, #144 ) ) ;
#727 = ORIENTED_EDGE ( 'NONE', *, *, #207, .F. ) ;
#728 = DIRECTION ( 'NONE',  ( -0.0000000000000000000, -0.0000000000000000000, 1.000000000000000000 ) ) ;
#729 = ADVANCED_FACE ( 'NONE', ( #704 ), #787, .F. ) ;
#730 = EDGE_CURVE ( 'NONE', #647, #335, #774, .T. ) ;
#731 = CARTESIAN_POINT ( 'NONE',  ( -1.804938562686642480E-13, 31.55000000000014637, -5.162427245913839613 ) ) ;
#732 = CARTESIAN_POINT ( 'NONE',  ( -2.467814547896019839, 28.34478110544322149, -4.348788125012553074 ) ) ;
#733 = CIRCLE ( 'NONE', #82, 12.99999999999998934 ) ;
#734 = ORIENTED_EDGE ( 'NONE', *, *, #974, .T. ) ;
#735 = DIRECTION ( 'NONE',  ( 0.0000000000000000000, 0.0000000000000000000, -1.000000000000000000 ) ) ;
#736 = B_SPLINE_CURVE_WITH_KNOTS ( 'NONE', 3,
 ( #707, #785, #945, #77, #861, #943, #473, #476, #551, #222, #547, #73, #635, #1026, #713, #213 ),
 .UNSPECIFIED., .F., .F.,
 ( 4, 2, 2, 2, 2, 2, 2, 4 ),
 ( 0.0005870633854107682684, 0.0009824358050973703172, 0.001377808224783972366, 0.001773180644470574198, 0.002168553064157176247, 0.002959297903530380344, 0.003354670323216978924, 0.003750042742903576636 ),
 .UNSPECIFIED. ) ;
#737 = DIRECTION ( 'NONE',  ( -0.0000000000000000000, -1.000000000000000000, -0.0000000000000000000 ) ) ;
#738 = CARTESIAN_POINT ( 'NONE',  ( -2.503242197935323876, 25.74195765743045783, -12.75869859018588848 ) ) ;
#739 = LINE ( 'NONE', #339, #530 ) ;
#740 = ADVANCED_FACE ( 'NONE', ( #692, #55 ), #81, .F. ) ;
#741 = ORIENTED_EDGE ( 'NONE', *, *, #561, .F. ) ;
#742 = CARTESIAN_POINT ( 'NONE',  ( 4.100000000000029843, 28.72980641282353531, -12.33653111697122462 ) ) ;
#743 = VECTOR ( 'NONE', #979, 1000.000000000000000 ) ;
#744 = VERTEX_POINT ( 'NONE', #158 ) ;
#745 = DIRECTION ( 'NONE',  ( 0.0000000000000000000, 1.000000000000000000, 0.0000000000000000000 ) ) ;
#746 = CARTESIAN_POINT ( 'NONE',  ( 3.968046160235237707, 30.06646070572433871, -12.37972886533304795 ) ) ;
#747 = CARTESIAN_POINT ( 'NONE',  ( 3.088364549292827999, 26.29009076501272446, -12.62931825710472467 ) ) ;
#748 = EDGE_CURVE ( 'NONE', #2, #27, #321, .T. ) ;
#749 = CIRCLE ( 'NONE', #1025, 11.99999999999998934 ) ;
#750 = CARTESIAN_POINT ( 'NONE',  ( 3.888275942437447785, 30.32770368244093007, -12.40535491413361768 ) ) ;
#751 = ORIENTED_EDGE ( 'NONE', *, *, #19, .T. ) ;
#752 = SURFACE_SIDE_STYLE ('',( #3 ) ) ;
#753 = AXIS2_PLACEMENT_3D ( 'NONE', #106, #93, #886 ) ;
#754 = EDGE_CURVE ( 'NONE', #647, #192, #481, .T. ) ;
#755 = EDGE_LOOP ( 'NONE', ( #926, #326, #405, #458 ) ) ;
#756 = CARTESIAN_POINT ( 'NONE',  ( -4.073691808877971887, 29.53677543372305081, -12.34536864443635551 ) ) ;
#757 = CARTESIAN_POINT ( 'NONE',  ( 0.0000000000000000000, 0.0000000000000000000, 0.0000000000000000000 ) ) ;
#758 = B_SPLINE_CURVE_WITH_KNOTS ( 'NONE', 3,
 ( #259, #928, #682, #279, #985, #761, #448, #915, #287, #521, #997, #603, #834, #600, #529, #756, #40, #527 ),
 .UNSPECIFIED., .F., .F.,
 ( 4, 2, 2, 2, 2, 2, 2, 2, 4 ),
 ( 1.395503844804956448E-18, 0.0008065772266911873595, 0.001613154453382373201, 0.002419731680073559151, 0.003226308906764745101, 0.004032886133455930618, 0.004839463360147108761, 0.005646040586838286038, 0.006452617813529463314 ),
 .UNSPECIFIED. ) ;
#759 = CARTESIAN_POINT ( 'NONE',  ( 1.383850883036509265E-15, 10.39516793723504406, 11.30000000000000071 ) ) ;
#760 = EDGE_LOOP ( 'NONE', ( #608, #283 ) ) ;
#761 = CARTESIAN_POINT ( 'NONE',  ( -1.824860632192041754, 32.68131081401592297, -12.87370547489396877 ) ) ;
#762 = DIRECTION ( 'NONE',  ( -0.0000000000000000000, -0.0000000000000000000, 1.000000000000000000 ) ) ;
#763 = CARTESIAN_POINT ( 'NONE',  ( 0.0000000000000000000, 29.00000000000001066, -12.99999999999998934 ) ) ;
#764 = EDGE_CURVE ( 'NONE', #192, #498, #469, .T. ) ;
#765 = DIRECTION ( 'NONE',  ( -0.0000000000000000000, -1.000000000000000000, -0.0000000000000000000 ) ) ;
#766 = PRODUCT_DEFINITION_FORMATION_WITH_SPECIFIED_SOURCE ( 'ANY', '', #257, .NOT_KNOWN. ) ;
#767 = EDGE_LOOP ( 'NONE', ( #535, #823, #942, #828, #1029, #720, #598 ) ) ;
#768 = AXIS2_PLACEMENT_3D ( 'NONE', #25, #820, #883 ) ;
#769 = TOROIDAL_SURFACE ( 'NONE', #556, -2.699999999999983746, 11.99999999999998934 ) ;
#770 = ORIENTED_EDGE ( 'NONE', *, *, #58, .F. ) ;
#771 = ADVANCED_FACE ( 'NONE', ( #398 ), #833, .T. ) ;
#772 = PLANE ( 'NONE',  #383 ) ;
#773 = CARTESIAN_POINT ( 'NONE',  ( 0.0000000000000000000, 0.0000000000000000000, 0.0000000000000000000 ) ) ;
#774 = CIRCLE ( 'NONE', #634, 11.30000000000000249 ) ;
#775 = DIRECTION ( 'NONE',  ( -0.0000000000000000000, -1.000000000000000000, -0.0000000000000000000 ) ) ;
#776 = AXIS2_PLACEMENT_3D ( 'NONE', #416, #969, #327 ) ;
#777 = EDGE_LOOP ( 'NONE', ( #451, #411, #160, #712 ) ) ;
#778 = CARTESIAN_POINT ( 'NONE',  ( 0.1473261810561012075, 31.55000000000004334, -5.162427245913363549 ) ) ;
#779 = ORIENTED_EDGE ( 'NONE', *, *, #803, .F. ) ;
#780 = PRESENTATION_STYLE_ASSIGNMENT (( #199 ) ) ;
#781 = AXIS2_PLACEMENT_3D ( 'NONE', #788, #309, #479 ) ;
#782 = SURFACE_STYLE_FILL_AREA ( #504 ) ;
#783 = EDGE_LOOP ( 'NONE', ( #533, #224, #366, #952 ) ) ;
#784 = DIRECTION ( 'NONE',  ( 1.000000000000000000, -0.0000000000000000000, 1.224646799147353207E-16 ) ) ;
#785 = CARTESIAN_POINT ( 'NONE',  ( 2.549999999999997602, 28.86761203071436199, -4.300872004605576393 ) ) ;
#786 = VERTEX_POINT ( 'NONE', #799 ) ;
#787 = CYLINDRICAL_SURFACE ( 'NONE', #781, 11.30000000000000071 ) ;
#788 = CARTESIAN_POINT ( 'NONE',  ( 0.0000000000000000000, 0.0000000000000000000, 0.0000000000000000000 ) ) ;
#789 = VERTEX_POINT ( 'NONE', #793 ) ;
#790 = AXIS2_PLACEMENT_3D ( 'NONE', #896, #745, #346 ) ;
#791 = LINE ( 'NONE', #100, #8 ) ;
#792 = VERTEX_POINT ( 'NONE', #566 ) ;
#793 = CARTESIAN_POINT ( 'NONE',  ( 0.0000000000000000000, 56.99999999999992895, -9.300000000000004263 ) ) ;
#794 = CIRCLE ( 'NONE', #964, 8.219529754965988033 ) ;
#795 = CARTESIAN_POINT ( 'NONE',  ( -2.527395921441182303, 29.39141741299982513, -4.314502284244753127 ) ) ;
#796 = ORIENTED_EDGE ( 'NONE', *, *, #1009, .F. ) ;
#797 = AXIS2_PLACEMENT_3D ( 'NONE', #99, #172, #415 ) ;
#798 = ORIENTED_EDGE ( 'NONE', *, *, #194, .F. ) ;
#799 = CARTESIAN_POINT ( 'NONE',  ( 1.437304608288723115E-15, 33.10000000000000853, -12.99999999999998224 ) ) ;
#800 = CYLINDRICAL_SURFACE ( 'NONE', #413, 2.549999999999996270 ) ;
#801 = ORIENTED_EDGE ( 'NONE', *, *, #194, .T. ) ;
#802 = MECHANICAL_DESIGN_GEOMETRIC_PRESENTATION_REPRESENTATION (  '', ( #489 ), #842 ) ;
#803 = EDGE_CURVE ( 'NONE', #165, #6, #858, .T. ) ;
#804 = DIRECTION ( 'NONE',  ( -0.0000000000000000000, -1.000000000000000000, -0.0000000000000000000 ) ) ;
#805 = ORIENTED_EDGE ( 'NONE', *, *, #180, .F. ) ;
#806 = B_SPLINE_CURVE_WITH_KNOTS ( 'NONE', 3,
 ( #1008, #532, #59, #696, #294, #377, #62, #614, #136, #702, #778, #298 ),
 .UNSPECIFIED., .F., .F.,
 ( 4, 2, 2, 2, 2, 4 ),
 ( 2.035475004903193715E-07, 0.0008772976168299961245, 0.001754391686159501940, 0.002631485755489008406, 0.003070032790153757411, 0.003508579824818506849 ),
 .UNSPECIFIED. ) ;
#807 = ORIENTED_EDGE ( 'NONE', *, *, #715, .T. ) ;
#808 = CARTESIAN_POINT ( 'NONE',  ( -3.257795546891166794, 26.49649251717787024, -12.58611622806810004 ) ) ;
#809 = ADVANCED_FACE ( 'NONE', ( #548 ), #691, .F. ) ;
#810 = AXIS2_PLACEMENT_3D ( 'NONE', #947, #90, #402 ) ;
#811 = CARTESIAN_POINT ( 'NONE',  ( -2.708409012662520876, 25.91035690501898969, -12.71621473486962195 ) ) ;
#812 = ORIENTED_EDGE ( 'NONE', *, *, #526, .F. ) ;
#813 = ADVANCED_FACE ( 'NONE', ( #331 ), #240, .F. ) ;
#814 = VECTOR ( 'NONE', #563, 1000.000000000000000 ) ;
#815 = EDGE_LOOP ( 'NONE', ( #268, #606, #877, #807, #387, #564, #751, #121 ) ) ;
#816 = DIRECTION ( 'NONE',  ( 1.000000000000000000, 0.0000000000000000000, 0.0000000000000000000 ) ) ;
#817 = DIRECTION ( 'NONE',  ( 0.0000000000000000000, 1.000000000000000000, 0.0000000000000000000 ) ) ;
#818 = VECTOR ( 'NONE', #148, 1000.000000000000000 ) ;
#819 = DIRECTION ( 'NONE',  ( 0.0000000000000000000, 0.0000000000000000000, 1.000000000000000000 ) ) ;
#820 = DIRECTION ( 'NONE',  ( -0.0000000000000000000, -1.000000000000000000, -0.0000000000000000000 ) ) ;
#821 = ADVANCED_FACE ( 'NONE', ( #882, #1031 ), #494, .T. ) ;
#822 = CARTESIAN_POINT ( 'NONE',  ( 1.138921523207039166E-15, 56.99999999999992895, 9.300000000000004263 ) ) ;
#823 = ORIENTED_EDGE ( 'NONE', *, *, #89, .T. ) ;
#824 = AXIS2_PLACEMENT_3D ( 'NONE', #17, #98, #576 ) ;
#825 = CARTESIAN_POINT ( 'NONE',  ( 4.100000000000328271, 29.00000000000048672, -12.33653111697116955 ) ) ;
#826 = CIRCLE ( 'NONE', #44, 9.300000000000004263 ) ;
#827 =( NAMED_UNIT ( * ) PLANE_ANGLE_UNIT ( ) SI_UNIT ( $, .RADIAN. ) );
#828 = ORIENTED_EDGE ( 'NONE', *, *, #76, .F. ) ;
#829 = DIRECTION ( 'NONE',  ( 0.0000000000000000000, 0.0000000000000000000, -1.000000000000000000 ) ) ;
#830 = ORIENTED_EDGE ( 'NONE', *, *, #951, .F. ) ;
#831 =( LENGTH_UNIT ( ) NAMED_UNIT ( * ) SI_UNIT ( .MILLI., .METRE. ) );
#832 = CARTESIAN_POINT ( 'NONE',  ( 4.099999999999999645, 29.00000000000001066, -19.00000000000000355 ) ) ;
#833 = TOROIDAL_SURFACE ( 'NONE', #560, 16.99999999999998579, 11.99999999999998934 ) ;
#834 = CARTESIAN_POINT ( 'NONE',  ( -3.683472684538839470, 30.82023158745917257, -12.46769804466948450 ) ) ;
#835 = CARTESIAN_POINT ( 'NONE',  ( 0.0000000000000000000, 15.00000000000000000, -11.30000000000000071 ) ) ;
#836 = ORIENTED_EDGE ( 'NONE', *, *, #157, .T. ) ;
#837 = CARTESIAN_POINT ( 'NONE',  ( 1.327102789887911749, 25.11149233561962291, -12.93448224131091706 ) ) ;
#838 = FILL_AREA_STYLE_COLOUR ( '', #875 ) ;
#839 = DIRECTION ( 'NONE',  ( 0.0000000000000000000, 1.000000000000000000, 0.0000000000000000000 ) ) ;
#840 = UNCERTAINTY_MEASURE_WITH_UNIT (LENGTH_MEASURE( 1.000000000000000082E-05 ), #831, 'distance_accuracy_value', 'NONE');
#841 = LINE ( 'NONE', #852, #723 ) ;
#842 =( GEOMETRIC_REPRESENTATION_CONTEXT ( 3 ) GLOBAL_UNCERTAINTY_ASSIGNED_CONTEXT ( ( #953 ) ) GLOBAL_UNIT_ASSIGNED_CONTEXT ( ( #663, #23, #892 ) ) REPRESENTATION_CONTEXT ( 'NONE', 'WORKASPACE' ) );
#843 = EDGE_CURVE ( 'NONE', #235, #319, #508, .T. ) ;
#844 = ORIENTED_EDGE ( 'NONE', *, *, #46, .T. ) ;
#845 = APPLICATION_CONTEXT ( 'automotive_design' ) ;
#846 = DIRECTION ( 'NONE',  ( -0.0000000000000000000, -1.000000000000000000, -0.0000000000000000000 ) ) ;
#847 = CIRCLE ( 'NONE', #394, 12.99999999999997513 ) ;
#848 = ORIENTED_EDGE ( 'NONE', *, *, #526, .T. ) ;
#849 = CARTESIAN_POINT ( 'NONE',  ( 0.0000000000000000000, 29.58229288467138929, 0.0000000000000000000 ) ) ;
#850 = ORIENTED_EDGE ( 'NONE', *, *, #68, .F. ) ;
#851 = DIRECTION ( 'NONE',  ( 0.0000000000000000000, 0.0000000000000000000, 1.000000000000000000 ) ) ;
#852 = CARTESIAN_POINT ( 'NONE',  ( 0.0000000000000000000, 31.99999999999995737, 4.999999999999997335 ) ) ;
#853 = DIRECTION ( 'NONE',  ( 1.000000000000000000, 0.0000000000000000000, 0.0000000000000000000 ) ) ;
#854 = EDGE_LOOP ( 'NONE', ( #965, #63, #223, #727, #893, #209, #80 ) ) ;
#855 = VECTOR ( 'NONE', #280, 1000.000000000000000 ) ;
#856 = EDGE_LOOP ( 'NONE', ( #937, #546, #958, #619 ) ) ;
#857 = CARTESIAN_POINT ( 'NONE',  ( 1.671849785224441754E-14, 26.45000000000000639, -5.000998915228822561 ) ) ;
#858 = CIRCLE ( 'NONE', #913, 9.300000000000006040 ) ;
#859 = DIRECTION ( 'NONE',  ( -1.224646799147353207E-16, 0.0000000000000000000, -1.000000000000000000 ) ) ;
#860 = ORIENTED_EDGE ( 'NONE', *, *, #895, .F. ) ;
#861 = CARTESIAN_POINT ( 'NONE',  ( 2.468238412462405496, 28.34623838398930928, -4.348549700224312531 ) ) ;
#862 = ORIENTED_EDGE ( 'NONE', *, *, #477, .F. ) ;
#863 = CIRCLE ( 'NONE', #797, 5.936214732711666109 ) ;
#864 = DIRECTION ( 'NONE',  ( -0.0000000000000000000, -1.000000000000000000, -0.0000000000000000000 ) ) ;
#865 = AXIS2_PLACEMENT_3D ( 'NONE', #253, #15, #501 ) ;
#866 = ORIENTED_EDGE ( 'NONE', *, *, #687, .T. ) ;
#867 = CIRCLE ( 'NONE', #613, 4.999999999999998224 ) ;
#868 = VERTEX_POINT ( 'NONE', #320 ) ;
#869 = DIRECTION ( 'NONE',  ( 1.224646799147352961E-16, 0.0000000000000000000, -1.000000000000000000 ) ) ;
#870 = VERTEX_POINT ( 'NONE', #227 ) ;
#871 = EDGE_CURVE ( 'NONE', #1017, #50, #794, .T. ) ;
#872 = DIRECTION ( 'NONE',  ( 6.037662682157804157E-17, -0.8700221858486163473, 0.4930125719808732265 ) ) ;
#873 = CARTESIAN_POINT ( 'NONE',  ( 0.0000000000000000000, 0.0000000000000000000, 0.0000000000000000000 ) ) ;
#874 = EDGE_CURVE ( 'NONE', #972, #786, #218, .T. ) ;
#875 = COLOUR_RGB ( '',0.7921568627450980005, 0.8196078431372548767, 0.9333333333333333481 ) ;
#876 = DIRECTION ( 'NONE',  ( 0.0000000000000000000, 0.0000000000000000000, 1.000000000000000000 ) ) ;
#877 = ORIENTED_EDGE ( 'NONE', *, *, #207, .T. ) ;
#878 = AXIS2_PLACEMENT_3D ( 'NONE', #531, #57, #52 ) ;
#879 = CIRCLE ( 'NONE', #666, 11.30000000000000249 ) ;
#880 = EDGE_CURVE ( 'NONE', #1013, #2, #78, .T. ) ;
#881 = DIRECTION ( 'NONE',  ( 0.0000000000000000000, 0.0000000000000000000, -1.000000000000000000 ) ) ;
#882 = FACE_OUTER_BOUND ( 'NONE', #276, .T. ) ;
#883 = DIRECTION ( 'NONE',  ( 0.0000000000000000000, 0.0000000000000000000, -1.000000000000000000 ) ) ;
#884 = AXIS2_PLACEMENT_3D ( 'NONE', #981, #737, #104 ) ;
#885 = ORIENTED_EDGE ( 'NONE', *, *, #629, .F. ) ;
#886 = DIRECTION ( 'NONE',  ( 0.0000000000000000000, 0.0000000000000000000, -1.000000000000000000 ) ) ;
#887 = DIRECTION ( 'NONE',  ( 0.0000000000000000000, 1.000000000000000000, 0.0000000000000000000 ) ) ;
#888 = CIRCLE ( 'NONE', #400, 2.549999999999996270 ) ;
#889 = CARTESIAN_POINT ( 'NONE',  ( 0.0000000000000000000, -3.674005408715527721E-17, -11.29999999999999893 ) ) ;
#890 = CARTESIAN_POINT ( 'NONE',  ( -4.099999999999998757, 28.73069298594955967, -12.33653111697123350 ) ) ;
#891 = ORIENTED_EDGE ( 'NONE', *, *, #290, .F. ) ;
#892 =( NAMED_UNIT ( * ) SI_UNIT ( $, .STERADIAN. ) SOLID_ANGLE_UNIT ( ) );
#893 = ORIENTED_EDGE ( 'NONE', *, *, #623, .T. ) ;
#894 = AXIS2_PLACEMENT_3D ( 'NONE', #173, #728, #524 ) ;
#895 = EDGE_CURVE ( 'NONE', #1005, #917, #863, .T. ) ;
#896 = CARTESIAN_POINT ( 'NONE',  ( 0.0000000000000000000, 10.39516793723504406, 0.0000000000000000000 ) ) ;
#897 = CARTESIAN_POINT ( 'NONE',  ( 0.0000000000000000000, 40.00901254116265449, 0.0000000000000000000 ) ) ;
#898 = ADVANCED_FACE ( 'NONE', ( #313 ), #229, .T. ) ;
#899 = CARTESIAN_POINT ( 'NONE',  ( -0.8750260295791453258, 26.60483206276493462, -4.922837540236214338 ) ) ;
#900 = CIRCLE ( 'NONE', #651, 11.99999999999998934 ) ;
#901 = ORIENTED_EDGE ( 'NONE', *, *, #880, .T. ) ;
#902 = DIRECTION ( 'NONE',  ( 0.0000000000000000000, 0.0000000000000000000, 1.000000000000000000 ) ) ;
#903 = CARTESIAN_POINT ( 'NONE',  ( -2.539830170162915124, 28.73660305755293010, -4.306951105134634084 ) ) ;
#904 = AXIS2_PLACEMENT_3D ( 'NONE', #703, #1011, #851 ) ;
#905 = SURFACE_STYLE_USAGE ( .BOTH. , #12 ) ;
#906 = VECTOR ( 'NONE', #590, 1000.000000000000000 ) ;
#907 = ADVANCED_FACE ( 'NONE', ( #244 ), #615, .T. ) ;
#908 = DIRECTION ( 'NONE',  ( 0.0000000000000000000, 1.000000000000000000, 0.0000000000000000000 ) ) ;
#909 = DIRECTION ( 'NONE',  ( -0.0000000000000000000, -1.000000000000000000, -0.0000000000000000000 ) ) ;
#910 = ORIENTED_EDGE ( 'NONE', *, *, #677, .F. ) ;
#911 = CARTESIAN_POINT ( 'NONE',  ( 1.383850883036509067E-15, -3.674005408715527721E-17, 11.29999999999999893 ) ) ;
#912 = CARTESIAN_POINT ( 'NONE',  ( 2.502967775361867542, 32.25829416681564510, -12.75876041010664963 ) ) ;
#913 = AXIS2_PLACEMENT_3D ( 'NONE', #325, #558, #410 ) ;
#914 = CARTESIAN_POINT ( 'NONE',  ( 0.0000000000000000000, 29.00000000000001066, -7.000000000000000000 ) ) ;
#915 = CARTESIAN_POINT ( 'NONE',  ( -2.504289239736608330, 32.25731530205841580, -12.75850704678907555 ) ) ;
#916 = DIRECTION ( 'NONE',  ( 0.0000000000000000000, 0.0000000000000000000, -1.000000000000000000 ) ) ;
#917 = VERTEX_POINT ( 'NONE', #664 ) ;
#918 = CARTESIAN_POINT ( 'NONE',  ( 0.0000000000000000000, 0.0000000000000000000, 0.0000000000000000000 ) ) ;
#919 = VERTEX_POINT ( 'NONE', #911 ) ;
#920 = CARTESIAN_POINT ( 'NONE',  ( 1.824595862508019417, 32.68140415018380196, -12.87373352306266483 ) ) ;
#921 = FACE_OUTER_BOUND ( 'NONE', #20, .T. ) ;
#922 = CARTESIAN_POINT ( 'NONE',  ( 3.682913270661990701, 30.82143808944659114, -12.46786550260062221 ) ) ;
#923 = CARTESIAN_POINT ( 'NONE',  ( 4.072698228002074927, 28.45685003151837833, -12.34569564847149437 ) ) ;
#924 = CYLINDRICAL_SURFACE ( 'NONE', #191, 2.549999999999996270 ) ;
#925 = ORIENTED_EDGE ( 'NONE', *, *, #687, .F. ) ;
#926 = ORIENTED_EDGE ( 'NONE', *, *, #871, .F. ) ;
#927 = DIRECTION ( 'NONE',  ( -0.0000000000000000000, -0.0000000000000000000, 1.000000000000000000 ) ) ;
#928 = CARTESIAN_POINT ( 'NONE',  ( -0.2728560522500195207, 33.09999999999999432, -12.99999999999998224 ) ) ;
#929 = DIRECTION ( 'NONE',  ( 0.0000000000000000000, 0.0000000000000000000, 1.000000000000000000 ) ) ;
#930 = DIRECTION ( 'NONE',  ( 0.0000000000000000000, 0.0000000000000000000, -1.000000000000000000 ) ) ;
#931 = ORIENTED_EDGE ( 'NONE', *, *, #1021, .F. ) ;
#932 = DIRECTION ( 'NONE',  ( -0.0000000000000000000, -1.000000000000000000, -0.0000000000000000000 ) ) ;
#933 = LINE ( 'NONE', #288, #514 ) ;
#934 = ORIENTED_EDGE ( 'NONE', *, *, #245, .F. ) ;
#935 = DIRECTION ( 'NONE',  ( -0.0000000000000000000, -1.000000000000000000, -0.0000000000000000000 ) ) ;
#936 = CONICAL_SURFACE ( 'NONE', #236, 11.30000000000000782, 0.5155490074589709204 ) ;
#937 = ORIENTED_EDGE ( 'NONE', *, *, #214, .T. ) ;
#938 = CARTESIAN_POINT ( 'NONE',  ( 0.0000000000000000000, 29.58229288467138929, 0.0000000000000000000 ) ) ;
#939 = CARTESIAN_POINT ( 'NONE',  ( 0.0000000000000000000, 46.99999999999993605, 0.0000000000000000000 ) ) ;
#940 = CYLINDRICAL_SURFACE ( 'NONE', #824, 4.099999999999999645 ) ;
#941 = CARTESIAN_POINT ( 'NONE',  ( 0.0000000000000000000, 29.00000000000001066, -12.99999999999998934 ) ) ;
#942 = ORIENTED_EDGE ( 'NONE', *, *, #7, .F. ) ;
#943 = CARTESIAN_POINT ( 'NONE',  ( 2.388401474639001432, 28.09714701791151015, -4.392906071385787925 ) ) ;
#944 = EDGE_CURVE ( 'NONE', #307, #870, #996, .T. ) ;
#945 = CARTESIAN_POINT ( 'NONE',  ( 2.539446273977888691, 28.73347555621935001, -4.307177033863053950 ) ) ;
#946 = ORIENTED_EDGE ( 'NONE', *, *, #262, .F. ) ;
#947 = CARTESIAN_POINT ( 'NONE',  ( 0.0000000000000000000, 10.39516793723504406, 0.0000000000000000000 ) ) ;
#948 = CYLINDRICAL_SURFACE ( 'NONE', #609, 11.30000000000000071 ) ;
#949 = EDGE_LOOP ( 'NONE', ( #343, #670, #295, #462, #844, #123, #1022 ) ) ;
#950 =( GEOMETRIC_REPRESENTATION_CONTEXT ( 3 ) GLOBAL_UNCERTAINTY_ASSIGNED_CONTEXT ( ( #243 ) ) GLOBAL_UNIT_ASSIGNED_CONTEXT ( ( #992, #827, #284 ) ) REPRESENTATION_CONTEXT ( 'NONE', 'WORKASPACE' ) );
#951 = EDGE_CURVE ( 'NONE', #789, #522, #338, .T. ) ;
#952 = ORIENTED_EDGE ( 'NONE', *, *, #545, .T. ) ;
#953 = UNCERTAINTY_MEASURE_WITH_UNIT (LENGTH_MEASURE( 1.000000000000000082E-05 ), #663, 'distance_accuracy_value', 'NONE');
#954 = DIRECTION ( 'NONE',  ( 0.0000000000000000000, 0.0000000000000000000, -1.000000000000000000 ) ) ;
#955 = CARTESIAN_POINT ( 'NONE',  ( 0.0000000000000000000, 18.57725528329553200, 0.0000000000000000000 ) ) ;
#956 = CARTESIAN_POINT ( 'NONE',  ( 0.0000000000000000000, 0.0000000000000000000, -12.99999999999998224 ) ) ;
#957 = CIRCLE ( 'NONE', #776, 11.30000000000000782 ) ;
#958 = ORIENTED_EDGE ( 'NONE', *, *, #871, .T. ) ;
#959 = EDGE_CURVE ( 'NONE', #549, #744, #355, .T. ) ;
#960 = CARTESIAN_POINT ( 'NONE',  ( -1.326346191991380152, 25.11125671128584358, -12.93455448619305947 ) ) ;
#961 = DIRECTION ( 'NONE',  ( 0.0000000000000000000, 0.0000000000000000000, 1.000000000000000000 ) ) ;
#962 = CARTESIAN_POINT ( 'NONE',  ( -0.3005571639275674278, 26.46343880997551778, -4.993915973076301640 ) ) ;
#963 = EDGE_LOOP ( 'NONE', ( #931, #13, #678, #654 ) ) ;
#964 = AXIS2_PLACEMENT_3D ( 'NONE', #488, #559, #641 ) ;
#965 = ORIENTED_EDGE ( 'NONE', *, *, #557, .F. ) ;
#966 = CARTESIAN_POINT ( 'NONE',  ( 0.0000000000000000000, 44.65580235342376625, 0.0000000000000000000 ) ) ;
#967 = CARTESIAN_POINT ( 'NONE',  ( -0.7227619367032817044, 31.44963633014387483, -5.096949714793375108 ) ) ;
#968 = CARTESIAN_POINT ( 'NONE',  ( -0.1497947367551598352, 26.45000000000000639, -5.000998915228673347 ) ) ;
#969 = DIRECTION ( 'NONE',  ( -0.0000000000000000000, -1.000000000000000000, -0.0000000000000000000 ) ) ;
#970 = B_SPLINE_CURVE_WITH_KNOTS ( 'NONE', 3,
 ( #96, #650, #337, #962, #968, #500 ),
 .UNSPECIFIED., .F., .F.,
 ( 4, 2, 4 ),
 ( 5.827633675222738943E-07, 0.0004469878121874423902, 0.0008933928610073624266 ),
 .UNSPECIFIED. ) ;
#971 = DIRECTION ( 'NONE',  ( 8.192455173239025739E-17, -0.7432941462471652772, 0.6689647316224508478 ) ) ;
#972 = VERTEX_POINT ( 'NONE', #95 ) ;
#973 = CARTESIAN_POINT ( 'NONE',  ( 0.0000000000000000000, 40.00901254116265449, 8.363785267288339043 ) ) ;
#974 = EDGE_CURVE ( 'NONE', #470, #1027, #30, .T. ) ;
#975 = LINE ( 'NONE', #65, #188 ) ;
#976 = VERTEX_POINT ( 'NONE', #263 ) ;
#977 = EDGE_CURVE ( 'NONE', #2, #1017, #739, .T. ) ;
#978 = CARTESIAN_POINT ( 'NONE',  ( -2.000468154094464879, 30.60568211028938990, -4.630742870064667116 ) ) ;
#979 = DIRECTION ( 'NONE',  ( 0.0000000000000000000, -0.7432941462471652772, -0.6689647316224508478 ) ) ;
#980 = VECTOR ( 'NONE', #233, 1000.000000000000000 ) ;
#981 = CARTESIAN_POINT ( 'NONE',  ( 0.0000000000000000000, 56.99999999999992895, 0.0000000000000000000 ) ) ;
#982 = DIRECTION ( 'NONE',  ( 1.000000000000000000, 0.0000000000000000000, -1.224646799147353207E-16 ) ) ;
#983 = AXIS2_PLACEMENT_3D ( 'NONE', #342, #582, #506 ) ;
#984 = DIRECTION ( 'NONE',  ( -0.0000000000000000000, -1.000000000000000000, -0.0000000000000000000 ) ) ;
#985 = CARTESIAN_POINT ( 'NONE',  ( -1.328914145061639962, 32.88794969506677290, -12.93431081180185416 ) ) ;
#986 = CARTESIAN_POINT ( 'NONE',  ( 4.073549670246699783, 29.53751451203170930, -12.34541494616325075 ) ) ;
#987 = CARTESIAN_POINT ( 'NONE',  ( 0.0000000000000000000, 34.22908269693249395, 0.0000000000000000000 ) ) ;
#988 = COLOUR_RGB ( '',0.7921568627450980005, 0.8196078431372548767, 0.9333333333333333481 ) ;
#989 = ORIENTED_EDGE ( 'NONE', *, *, #754, .F. ) ;
#990 = AXIS2_PLACEMENT_3D ( 'NONE', #178, #961, #816 ) ;
#991 = DIRECTION ( 'NONE',  ( 1.000000000000000000, 0.0000000000000000000, 0.0000000000000000000 ) ) ;
#992 =( LENGTH_UNIT ( ) NAMED_UNIT ( * ) SI_UNIT ( .MILLI., .METRE. ) );
#993 = CARTESIAN_POINT ( 'NONE',  ( 0.5408207967356585266, 33.07305042585367261, -12.99142897499416094 ) ) ;
#994 = ORIENTED_EDGE ( 'NONE', *, *, #623, .F. ) ;
#995 = DIRECTION ( 'NONE',  ( 0.0000000000000000000, 0.0000000000000000000, -1.000000000000000000 ) ) ;
#996 = B_SPLINE_CURVE_WITH_KNOTS ( 'NONE', 3,
 ( #163, #579, #425, #112, #431, #181 ),
 .UNSPECIFIED., .F., .F.,
 ( 4, 2, 4 ),
 ( 0.0008933928610073624266, 0.001339563419903537066, 0.001785733978799711706 ),
 .UNSPECIFIED. ) ;
#997 = CARTESIAN_POINT ( 'NONE',  ( -3.257806002927316147, 31.50385392993761968, -12.58613527233462293 ) ) ;
#998 = DIRECTION ( 'NONE',  ( 0.0000000000000000000, 0.0000000000000000000, -1.000000000000000000 ) ) ;
#999 = PRODUCT_DEFINITION ( 'UNKNOWN', '', #766, #537 ) ;
#1000 = EDGE_CURVE ( 'NONE', #358, #319, #565, .T. ) ;
#1001 =( NAMED_UNIT ( * ) SI_UNIT ( $, .STERADIAN. ) SOLID_ANGLE_UNIT ( ) );
#1002 = DIRECTION ( 'NONE',  ( 0.0000000000000000000, 0.0000000000000000000, 1.000000000000000000 ) ) ;
#1003 = ORIENTED_EDGE ( 'NONE', *, *, #754, .T. ) ;
#1004 = FACE_OUTER_BOUND ( 'NONE', #676, .T. ) ;
#1005 = VERTEX_POINT ( 'NONE', #249 ) ;
#1006 = DIRECTION ( 'NONE',  ( 1.000000000000000000, 0.0000000000000000000, -0.0000000000000000000 ) ) ;
#1007 = AXIS2_PLACEMENT_3D ( 'NONE', #447, #908, #34 ) ;
#1008 = CARTESIAN_POINT ( 'NONE',  ( 2.482626632512643816, 29.58229288467138929, -4.340111174098990610 ) ) ;
#1009 = EDGE_CURVE ( 'NONE', #786, #689, #758, .T. ) ;
#1010 = ADVANCED_FACE ( 'NONE', ( #292 ), #483, .F. ) ;
#1011 = DIRECTION ( 'NONE',  ( -1.000000000000000000, 0.0000000000000000000, 0.0000000000000000000 ) ) ;
#1012 = CARTESIAN_POINT ( 'NONE',  ( -4.099999999999999645, 29.00000000000001066, -19.00000000000000355 ) ) ;
#1013 = VERTEX_POINT ( 'NONE', #365 ) ;
#1014 = STYLED_ITEM ( 'NONE', ( #780 ), #129 ) ;
#1015 = CYLINDRICAL_SURFACE ( 'NONE', #706, 11.30000000000000426 ) ;
#1016 = CIRCLE ( 'NONE', #878, 2.549999999999996270 ) ;
#1017 = VERTEX_POINT ( 'NONE', #186 ) ;
#1018 = CARTESIAN_POINT ( 'NONE',  ( 0.0000000000000000000, 31.99999999999995737, 0.0000000000000000000 ) ) ;
#1019 = PRESENTATION_LAYER_ASSIGNMENT (  '', '', ( #489 ) ) ;
#1020 = CARTESIAN_POINT ( 'NONE',  ( 2.081899558550499096E-15, 26.60483206276493462, -16.99999999999998579 ) ) ;
#1021 = EDGE_CURVE ( 'NONE', #1005, #108, #708, .T. ) ;
#1022 = ORIENTED_EDGE ( 'NONE', *, *, #414, .F. ) ;
#1023 = ORIENTED_EDGE ( 'NONE', *, *, #363, .F. ) ;
#1024 = FACE_OUTER_BOUND ( 'NONE', #471, .T. ) ;
#1025 = AXIS2_PLACEMENT_3D ( 'NONE', #312, #390, #143 ) ;
#1026 = CARTESIAN_POINT ( 'NONE',  ( 1.117238490323518185, 26.70412035748641344, -4.874985527568275856 ) ) ;
#1027 = VERTEX_POINT ( 'NONE', #759 ) ;
#1028 = LINE ( 'NONE', #956, #814 ) ;
#1029 = ORIENTED_EDGE ( 'NONE', *, *, #467, .T. ) ;
#1030 = EDGE_CURVE ( 'NONE', #108, #373, #721, .T. ) ;
#1031 = FACE_BOUND ( 'NONE', #760, .T. ) ;
ENDSEC;
END-ISO-10303-21;
